M48
;Layer_Color=9474304
;FILE_FORMAT=2:5
INCH,LZ
;TYPE=PLATED
T1F00S00C0.00800
%
T01
X0167398Y0390878
X0167283Y0394815
Y0398752
Y0402673
Y0410539
Y04145
Y0418347
Y0422272
Y0426209
Y0430138
Y0436098
Y0440087
Y0444024
Y0447909
X0167398Y0451898
X0167283Y0455756
Y0459697
Y0467622
X0577177Y0551559
X0574539Y0554598
X0572256Y0557744
X0569764Y0560685
X0567309Y0563826
X0564598Y0566748
X0562067Y056963
X055937Y057259
X0557143Y0573257
X0555832Y0577256
X0553299Y0580271
X0550098Y0582787
X0548244Y0586492
X054574Y0589484
X054285Y059215
X0540165Y0594943
X0538216Y0598335
X0534039Y0600126
X0532059Y0603561
X0529961Y0607035
X0517781Y0619848
X051525Y0622864
X0167283Y0497173
Y0493236
Y0475488
Y0471531
M30
