ISO-10303-21;
HEADER;
FILE_DESCRIPTION(('Open CASCADE Model'),'2;1');
FILE_NAME('Open CASCADE Shape Model','2021-10-15T11:51:57',('Author'),(
    'Open CASCADE'),'Open CASCADE STEP processor 6.8','Open CASCADE 6.8'
  ,'Unknown');
FILE_SCHEMA(('AUTOMOTIVE_DESIGN { 1 0 10303 214 1 1 1 1 }'));
ENDSEC;
DATA;
#1 = APPLICATION_PROTOCOL_DEFINITION('international standard',
  'automotive_design',2000,#2);
#2 = APPLICATION_CONTEXT(
  'core data for automotive mechanical design processes');
#3 = SHAPE_DEFINITION_REPRESENTATION(#4,#10);
#4 = PRODUCT_DEFINITION_SHAPE('','',#5);
#5 = PRODUCT_DEFINITION('design','',#6,#9);
#6 = PRODUCT_DEFINITION_FORMATION('','',#7);
#7 = PRODUCT('PCB','PCB','',(#8));
#8 = PRODUCT_CONTEXT('',#2,'mechanical');
#9 = PRODUCT_DEFINITION_CONTEXT('part definition',#2,'design');
#10 = ADVANCED_BREP_SHAPE_REPRESENTATION('',(#11,#15),#1485);
#11 = AXIS2_PLACEMENT_3D('',#12,#13,#14);
#12 = CARTESIAN_POINT('',(0.E+000,0.E+000,0.E+000));
#13 = DIRECTION('',(0.E+000,0.E+000,1.));
#14 = DIRECTION('',(1.,0.E+000,-0.E+000));
#15 = MANIFOLD_SOLID_BREP('',#16);
#16 = CLOSED_SHELL('',(#17,#57,#88,#119,#150,#181,#212,#243,#274,#305,
    #336,#367,#398,#429,#460,#491,#522,#553,#584,#615,#646,#677,#708,
    #739,#770,#801,#832,#863,#894,#925,#956,#987,#1018,#1049,#1080,#1111
    ,#1142,#1173,#1204,#1235,#1266,#1297,#1328,#1359,#1381,#1433));
#17 = ADVANCED_FACE('',(#18),#52,.F.);
#18 = FACE_BOUND('',#19,.F.);
#19 = EDGE_LOOP('',(#20,#30,#38,#46));
#20 = ORIENTED_EDGE('',*,*,#21,.T.);
#21 = EDGE_CURVE('',#22,#24,#26,.T.);
#22 = VERTEX_POINT('',#23);
#23 = CARTESIAN_POINT('',(38.088001251221,96.265998840332,-0.2010029));
#24 = VERTEX_POINT('',#25);
#25 = CARTESIAN_POINT('',(38.088001251221,96.265998840332,0.E+000));
#26 = LINE('',#27,#28);
#27 = CARTESIAN_POINT('',(38.088001251221,96.265998840332,-0.2010029));
#28 = VECTOR('',#29,1.);
#29 = DIRECTION('',(0.E+000,0.E+000,1.));
#30 = ORIENTED_EDGE('',*,*,#31,.T.);
#31 = EDGE_CURVE('',#24,#32,#34,.T.);
#32 = VERTEX_POINT('',#33);
#33 = CARTESIAN_POINT('',(39.187000274658,96.265998840332,0.E+000));
#34 = LINE('',#35,#36);
#35 = CARTESIAN_POINT('',(38.088001251221,96.265998840332,0.E+000));
#36 = VECTOR('',#37,1.);
#37 = DIRECTION('',(1.,0.E+000,0.E+000));
#38 = ORIENTED_EDGE('',*,*,#39,.F.);
#39 = EDGE_CURVE('',#40,#32,#42,.T.);
#40 = VERTEX_POINT('',#41);
#41 = CARTESIAN_POINT('',(39.187000274658,96.265998840332,-0.2010029));
#42 = LINE('',#43,#44);
#43 = CARTESIAN_POINT('',(39.187000274658,96.265998840332,-0.2010029));
#44 = VECTOR('',#45,1.);
#45 = DIRECTION('',(0.E+000,0.E+000,1.));
#46 = ORIENTED_EDGE('',*,*,#47,.F.);
#47 = EDGE_CURVE('',#22,#40,#48,.T.);
#48 = LINE('',#49,#50);
#49 = CARTESIAN_POINT('',(38.088001251221,96.265998840332,-0.2010029));
#50 = VECTOR('',#51,1.);
#51 = DIRECTION('',(1.,0.E+000,0.E+000));
#52 = PLANE('',#53);
#53 = AXIS2_PLACEMENT_3D('',#54,#55,#56);
#54 = CARTESIAN_POINT('',(38.088001251221,96.265998840332,-0.2010029));
#55 = DIRECTION('',(0.E+000,1.,0.E+000));
#56 = DIRECTION('',(1.,0.E+000,0.E+000));
#57 = ADVANCED_FACE('',(#58),#83,.F.);
#58 = FACE_BOUND('',#59,.F.);
#59 = EDGE_LOOP('',(#60,#61,#69,#77));
#60 = ORIENTED_EDGE('',*,*,#39,.T.);
#61 = ORIENTED_EDGE('',*,*,#62,.T.);
#62 = EDGE_CURVE('',#32,#63,#65,.T.);
#63 = VERTEX_POINT('',#64);
#64 = CARTESIAN_POINT('',(39.589000701904,95.716003417969,0.E+000));
#65 = LINE('',#66,#67);
#66 = CARTESIAN_POINT('',(39.187000274658,96.265998840332,0.E+000));
#67 = VECTOR('',#68,1.);
#68 = DIRECTION('',(0.590093803462,-0.807334690891,0.E+000));
#69 = ORIENTED_EDGE('',*,*,#70,.F.);
#70 = EDGE_CURVE('',#71,#63,#73,.T.);
#71 = VERTEX_POINT('',#72);
#72 = CARTESIAN_POINT('',(39.589000701904,95.716003417969,-0.2010029));
#73 = LINE('',#74,#75);
#74 = CARTESIAN_POINT('',(39.589000701904,95.716003417969,-0.2010029));
#75 = VECTOR('',#76,1.);
#76 = DIRECTION('',(0.E+000,0.E+000,1.));
#77 = ORIENTED_EDGE('',*,*,#78,.F.);
#78 = EDGE_CURVE('',#40,#71,#79,.T.);
#79 = LINE('',#80,#81);
#80 = CARTESIAN_POINT('',(39.187000274658,96.265998840332,-0.2010029));
#81 = VECTOR('',#82,1.);
#82 = DIRECTION('',(0.590093803462,-0.807334690891,0.E+000));
#83 = PLANE('',#84);
#84 = AXIS2_PLACEMENT_3D('',#85,#86,#87);
#85 = CARTESIAN_POINT('',(39.187000274658,96.265998840332,-0.2010029));
#86 = DIRECTION('',(0.807334690891,0.590093803462,-0.E+000));
#87 = DIRECTION('',(0.590093803462,-0.807334690891,0.E+000));
#88 = ADVANCED_FACE('',(#89),#114,.F.);
#89 = FACE_BOUND('',#90,.F.);
#90 = EDGE_LOOP('',(#91,#92,#100,#108));
#91 = ORIENTED_EDGE('',*,*,#70,.T.);
#92 = ORIENTED_EDGE('',*,*,#93,.T.);
#93 = EDGE_CURVE('',#63,#94,#96,.T.);
#94 = VERTEX_POINT('',#95);
#95 = CARTESIAN_POINT('',(40.286998748779,95.716003417969,0.E+000));
#96 = LINE('',#97,#98);
#97 = CARTESIAN_POINT('',(39.589000701904,95.716003417969,0.E+000));
#98 = VECTOR('',#99,1.);
#99 = DIRECTION('',(1.,0.E+000,0.E+000));
#100 = ORIENTED_EDGE('',*,*,#101,.F.);
#101 = EDGE_CURVE('',#102,#94,#104,.T.);
#102 = VERTEX_POINT('',#103);
#103 = CARTESIAN_POINT('',(40.286998748779,95.716003417969,-0.2010029));
#104 = LINE('',#105,#106);
#105 = CARTESIAN_POINT('',(40.286998748779,95.716003417969,-0.2010029));
#106 = VECTOR('',#107,1.);
#107 = DIRECTION('',(0.E+000,0.E+000,1.));
#108 = ORIENTED_EDGE('',*,*,#109,.F.);
#109 = EDGE_CURVE('',#71,#102,#110,.T.);
#110 = LINE('',#111,#112);
#111 = CARTESIAN_POINT('',(39.589000701904,95.716003417969,-0.2010029));
#112 = VECTOR('',#113,1.);
#113 = DIRECTION('',(1.,0.E+000,0.E+000));
#114 = PLANE('',#115);
#115 = AXIS2_PLACEMENT_3D('',#116,#117,#118);
#116 = CARTESIAN_POINT('',(39.589000701904,95.716003417969,-0.2010029));
#117 = DIRECTION('',(0.E+000,1.,0.E+000));
#118 = DIRECTION('',(1.,0.E+000,0.E+000));
#119 = ADVANCED_FACE('',(#120),#145,.F.);
#120 = FACE_BOUND('',#121,.F.);
#121 = EDGE_LOOP('',(#122,#123,#131,#139));
#122 = ORIENTED_EDGE('',*,*,#101,.T.);
#123 = ORIENTED_EDGE('',*,*,#124,.T.);
#124 = EDGE_CURVE('',#94,#125,#127,.T.);
#125 = VERTEX_POINT('',#126);
#126 = CARTESIAN_POINT('',(40.286998748779,96.264999389648,0.E+000));
#127 = LINE('',#128,#129);
#128 = CARTESIAN_POINT('',(40.286998748779,95.716003417969,0.E+000));
#129 = VECTOR('',#130,1.);
#130 = DIRECTION('',(0.E+000,1.,0.E+000));
#131 = ORIENTED_EDGE('',*,*,#132,.F.);
#132 = EDGE_CURVE('',#133,#125,#135,.T.);
#133 = VERTEX_POINT('',#134);
#134 = CARTESIAN_POINT('',(40.286998748779,96.264999389648,-0.2010029));
#135 = LINE('',#136,#137);
#136 = CARTESIAN_POINT('',(40.286998748779,96.264999389648,-0.2010029));
#137 = VECTOR('',#138,1.);
#138 = DIRECTION('',(0.E+000,0.E+000,1.));
#139 = ORIENTED_EDGE('',*,*,#140,.F.);
#140 = EDGE_CURVE('',#102,#133,#141,.T.);
#141 = LINE('',#142,#143);
#142 = CARTESIAN_POINT('',(40.286998748779,95.716003417969,-0.2010029));
#143 = VECTOR('',#144,1.);
#144 = DIRECTION('',(0.E+000,1.,0.E+000));
#145 = PLANE('',#146);
#146 = AXIS2_PLACEMENT_3D('',#147,#148,#149);
#147 = CARTESIAN_POINT('',(40.286998748779,95.716003417969,-0.2010029));
#148 = DIRECTION('',(-1.,0.E+000,0.E+000));
#149 = DIRECTION('',(0.E+000,1.,0.E+000));
#150 = ADVANCED_FACE('',(#151),#176,.F.);
#151 = FACE_BOUND('',#152,.F.);
#152 = EDGE_LOOP('',(#153,#154,#162,#170));
#153 = ORIENTED_EDGE('',*,*,#132,.T.);
#154 = ORIENTED_EDGE('',*,*,#155,.T.);
#155 = EDGE_CURVE('',#125,#156,#158,.T.);
#156 = VERTEX_POINT('',#157);
#157 = CARTESIAN_POINT('',(73.776000976563,96.333000183105,0.E+000));
#158 = LINE('',#159,#160);
#159 = CARTESIAN_POINT('',(40.286998748779,96.264999389648,0.E+000));
#160 = VECTOR('',#161,1.);
#161 = DIRECTION('',(0.999997938458,2.030536855294E-003,0.E+000));
#162 = ORIENTED_EDGE('',*,*,#163,.F.);
#163 = EDGE_CURVE('',#164,#156,#166,.T.);
#164 = VERTEX_POINT('',#165);
#165 = CARTESIAN_POINT('',(73.776000976563,96.333000183105,-0.2010029));
#166 = LINE('',#167,#168);
#167 = CARTESIAN_POINT('',(73.776000976563,96.333000183105,-0.2010029));
#168 = VECTOR('',#169,1.);
#169 = DIRECTION('',(0.E+000,0.E+000,1.));
#170 = ORIENTED_EDGE('',*,*,#171,.F.);
#171 = EDGE_CURVE('',#133,#164,#172,.T.);
#172 = LINE('',#173,#174);
#173 = CARTESIAN_POINT('',(40.286998748779,96.264999389648,-0.2010029));
#174 = VECTOR('',#175,1.);
#175 = DIRECTION('',(0.999997938458,2.030536855294E-003,0.E+000));
#176 = PLANE('',#177);
#177 = AXIS2_PLACEMENT_3D('',#178,#179,#180);
#178 = CARTESIAN_POINT('',(40.286998748779,96.264999389648,-0.2010029));
#179 = DIRECTION('',(-2.030536855294E-003,0.999997938458,0.E+000));
#180 = DIRECTION('',(0.999997938458,2.030536855294E-003,0.E+000));
#181 = ADVANCED_FACE('',(#182),#207,.F.);
#182 = FACE_BOUND('',#183,.F.);
#183 = EDGE_LOOP('',(#184,#185,#193,#201));
#184 = ORIENTED_EDGE('',*,*,#163,.T.);
#185 = ORIENTED_EDGE('',*,*,#186,.T.);
#186 = EDGE_CURVE('',#156,#187,#189,.T.);
#187 = VERTEX_POINT('',#188);
#188 = CARTESIAN_POINT('',(87.83699798584,98.766998291016,0.E+000));
#189 = LINE('',#190,#191);
#190 = CARTESIAN_POINT('',(73.776000976563,96.333000183105,0.E+000));
#191 = VECTOR('',#192,1.);
#192 = DIRECTION('',(0.985346219004,0.170566200328,0.E+000));
#193 = ORIENTED_EDGE('',*,*,#194,.F.);
#194 = EDGE_CURVE('',#195,#187,#197,.T.);
#195 = VERTEX_POINT('',#196);
#196 = CARTESIAN_POINT('',(87.83699798584,98.766998291016,-0.2010029));
#197 = LINE('',#198,#199);
#198 = CARTESIAN_POINT('',(87.83699798584,98.766998291016,-0.2010029));
#199 = VECTOR('',#200,1.);
#200 = DIRECTION('',(0.E+000,0.E+000,1.));
#201 = ORIENTED_EDGE('',*,*,#202,.F.);
#202 = EDGE_CURVE('',#164,#195,#203,.T.);
#203 = LINE('',#204,#205);
#204 = CARTESIAN_POINT('',(73.776000976563,96.333000183105,-0.2010029));
#205 = VECTOR('',#206,1.);
#206 = DIRECTION('',(0.985346219004,0.170566200328,0.E+000));
#207 = PLANE('',#208);
#208 = AXIS2_PLACEMENT_3D('',#209,#210,#211);
#209 = CARTESIAN_POINT('',(73.776000976563,96.333000183105,-0.2010029));
#210 = DIRECTION('',(-0.170566200328,0.985346219004,0.E+000));
#211 = DIRECTION('',(0.985346219004,0.170566200328,0.E+000));
#212 = ADVANCED_FACE('',(#213),#238,.F.);
#213 = FACE_BOUND('',#214,.F.);
#214 = EDGE_LOOP('',(#215,#216,#224,#232));
#215 = ORIENTED_EDGE('',*,*,#194,.T.);
#216 = ORIENTED_EDGE('',*,*,#217,.T.);
#217 = EDGE_CURVE('',#187,#218,#220,.T.);
#218 = VERTEX_POINT('',#219);
#219 = CARTESIAN_POINT('',(95.307998657227,100.71600341796,0.E+000));
#220 = LINE('',#221,#222);
#221 = CARTESIAN_POINT('',(87.83699798584,98.766998291016,0.E+000));
#222 = VECTOR('',#223,1.);
#223 = DIRECTION('',(0.96761574034,0.252427769959,0.E+000));
#224 = ORIENTED_EDGE('',*,*,#225,.F.);
#225 = EDGE_CURVE('',#226,#218,#228,.T.);
#226 = VERTEX_POINT('',#227);
#227 = CARTESIAN_POINT('',(95.307998657227,100.71600341796,-0.2010029));
#228 = LINE('',#229,#230);
#229 = CARTESIAN_POINT('',(95.307998657227,100.71600341796,-0.2010029));
#230 = VECTOR('',#231,1.);
#231 = DIRECTION('',(0.E+000,0.E+000,1.));
#232 = ORIENTED_EDGE('',*,*,#233,.F.);
#233 = EDGE_CURVE('',#195,#226,#234,.T.);
#234 = LINE('',#235,#236);
#235 = CARTESIAN_POINT('',(87.83699798584,98.766998291016,-0.2010029));
#236 = VECTOR('',#237,1.);
#237 = DIRECTION('',(0.96761574034,0.252427769959,0.E+000));
#238 = PLANE('',#239);
#239 = AXIS2_PLACEMENT_3D('',#240,#241,#242);
#240 = CARTESIAN_POINT('',(87.83699798584,98.766998291016,-0.2010029));
#241 = DIRECTION('',(-0.252427769959,0.96761574034,0.E+000));
#242 = DIRECTION('',(0.96761574034,0.252427769959,0.E+000));
#243 = ADVANCED_FACE('',(#244),#269,.F.);
#244 = FACE_BOUND('',#245,.F.);
#245 = EDGE_LOOP('',(#246,#247,#255,#263));
#246 = ORIENTED_EDGE('',*,*,#225,.T.);
#247 = ORIENTED_EDGE('',*,*,#248,.T.);
#248 = EDGE_CURVE('',#218,#249,#251,.T.);
#249 = VERTEX_POINT('',#250);
#250 = CARTESIAN_POINT('',(103.02400207519,103.37100219726,0.E+000));
#251 = LINE('',#252,#253);
#252 = CARTESIAN_POINT('',(95.307998657227,100.71600341796,0.E+000));
#253 = VECTOR('',#254,1.);
#254 = DIRECTION('',(0.945587750519,0.325367186528,0.E+000));
#255 = ORIENTED_EDGE('',*,*,#256,.F.);
#256 = EDGE_CURVE('',#257,#249,#259,.T.);
#257 = VERTEX_POINT('',#258);
#258 = CARTESIAN_POINT('',(103.02400207519,103.37100219726,-0.2010029));
#259 = LINE('',#260,#261);
#260 = CARTESIAN_POINT('',(103.02400207519,103.37100219726,-0.2010029));
#261 = VECTOR('',#262,1.);
#262 = DIRECTION('',(0.E+000,0.E+000,1.));
#263 = ORIENTED_EDGE('',*,*,#264,.F.);
#264 = EDGE_CURVE('',#226,#257,#265,.T.);
#265 = LINE('',#266,#267);
#266 = CARTESIAN_POINT('',(95.307998657227,100.71600341796,-0.2010029));
#267 = VECTOR('',#268,1.);
#268 = DIRECTION('',(0.945587750519,0.325367186528,0.E+000));
#269 = PLANE('',#270);
#270 = AXIS2_PLACEMENT_3D('',#271,#272,#273);
#271 = CARTESIAN_POINT('',(95.307998657227,100.71600341796,-0.2010029));
#272 = DIRECTION('',(-0.325367186528,0.945587750519,0.E+000));
#273 = DIRECTION('',(0.945587750519,0.325367186528,0.E+000));
#274 = ADVANCED_FACE('',(#275),#300,.F.);
#275 = FACE_BOUND('',#276,.F.);
#276 = EDGE_LOOP('',(#277,#278,#286,#294));
#277 = ORIENTED_EDGE('',*,*,#256,.T.);
#278 = ORIENTED_EDGE('',*,*,#279,.T.);
#279 = EDGE_CURVE('',#249,#280,#282,.T.);
#280 = VERTEX_POINT('',#281);
#281 = CARTESIAN_POINT('',(113.33999633789,107.88400268554,0.E+000));
#282 = LINE('',#283,#284);
#283 = CARTESIAN_POINT('',(103.02400207519,103.37100219726,0.E+000));
#284 = VECTOR('',#285,1.);
#285 = DIRECTION('',(0.916165390001,0.400800421862,0.E+000));
#286 = ORIENTED_EDGE('',*,*,#287,.F.);
#287 = EDGE_CURVE('',#288,#280,#290,.T.);
#288 = VERTEX_POINT('',#289);
#289 = CARTESIAN_POINT('',(113.33999633789,107.88400268554,-0.2010029));
#290 = LINE('',#291,#292);
#291 = CARTESIAN_POINT('',(113.33999633789,107.88400268554,-0.2010029));
#292 = VECTOR('',#293,1.);
#293 = DIRECTION('',(0.E+000,0.E+000,1.));
#294 = ORIENTED_EDGE('',*,*,#295,.F.);
#295 = EDGE_CURVE('',#257,#288,#296,.T.);
#296 = LINE('',#297,#298);
#297 = CARTESIAN_POINT('',(103.02400207519,103.37100219726,-0.2010029));
#298 = VECTOR('',#299,1.);
#299 = DIRECTION('',(0.916165390001,0.400800421862,0.E+000));
#300 = PLANE('',#301);
#301 = AXIS2_PLACEMENT_3D('',#302,#303,#304);
#302 = CARTESIAN_POINT('',(103.02400207519,103.37100219726,-0.2010029));
#303 = DIRECTION('',(-0.400800421862,0.916165390001,0.E+000));
#304 = DIRECTION('',(0.916165390001,0.400800421862,0.E+000));
#305 = ADVANCED_FACE('',(#306),#331,.F.);
#306 = FACE_BOUND('',#307,.F.);
#307 = EDGE_LOOP('',(#308,#309,#317,#325));
#308 = ORIENTED_EDGE('',*,*,#287,.T.);
#309 = ORIENTED_EDGE('',*,*,#310,.T.);
#310 = EDGE_CURVE('',#280,#311,#313,.T.);
#311 = VERTEX_POINT('',#312);
#312 = CARTESIAN_POINT('',(122.63800048828,113.21800231933,0.E+000));
#313 = LINE('',#314,#315);
#314 = CARTESIAN_POINT('',(113.33999633789,107.88400268554,0.E+000));
#315 = VECTOR('',#316,1.);
#316 = DIRECTION('',(0.867403845443,0.497604832081,0.E+000));
#317 = ORIENTED_EDGE('',*,*,#318,.F.);
#318 = EDGE_CURVE('',#319,#311,#321,.T.);
#319 = VERTEX_POINT('',#320);
#320 = CARTESIAN_POINT('',(122.63800048828,113.21800231933,-0.2010029));
#321 = LINE('',#322,#323);
#322 = CARTESIAN_POINT('',(122.63800048828,113.21800231933,-0.2010029));
#323 = VECTOR('',#324,1.);
#324 = DIRECTION('',(0.E+000,0.E+000,1.));
#325 = ORIENTED_EDGE('',*,*,#326,.F.);
#326 = EDGE_CURVE('',#288,#319,#327,.T.);
#327 = LINE('',#328,#329);
#328 = CARTESIAN_POINT('',(113.33999633789,107.88400268554,-0.2010029));
#329 = VECTOR('',#330,1.);
#330 = DIRECTION('',(0.867403845443,0.497604832081,0.E+000));
#331 = PLANE('',#332);
#332 = AXIS2_PLACEMENT_3D('',#333,#334,#335);
#333 = CARTESIAN_POINT('',(113.33999633789,107.88400268554,-0.2010029));
#334 = DIRECTION('',(-0.497604832081,0.867403845443,0.E+000));
#335 = DIRECTION('',(0.867403845443,0.497604832081,0.E+000));
#336 = ADVANCED_FACE('',(#337),#362,.F.);
#337 = FACE_BOUND('',#338,.F.);
#338 = EDGE_LOOP('',(#339,#340,#348,#356));
#339 = ORIENTED_EDGE('',*,*,#318,.T.);
#340 = ORIENTED_EDGE('',*,*,#341,.T.);
#341 = EDGE_CURVE('',#311,#342,#344,.T.);
#342 = VERTEX_POINT('',#343);
#343 = CARTESIAN_POINT('',(127.25800323486,116.26699829101,0.E+000));
#344 = LINE('',#345,#346);
#345 = CARTESIAN_POINT('',(122.63800048828,113.21800231933,0.E+000));
#346 = VECTOR('',#347,1.);
#347 = DIRECTION('',(0.834626502078,0.550816305158,0.E+000));
#348 = ORIENTED_EDGE('',*,*,#349,.F.);
#349 = EDGE_CURVE('',#350,#342,#352,.T.);
#350 = VERTEX_POINT('',#351);
#351 = CARTESIAN_POINT('',(127.25800323486,116.26699829101,-0.2010029));
#352 = LINE('',#353,#354);
#353 = CARTESIAN_POINT('',(127.25800323486,116.26699829101,-0.2010029));
#354 = VECTOR('',#355,1.);
#355 = DIRECTION('',(0.E+000,0.E+000,1.));
#356 = ORIENTED_EDGE('',*,*,#357,.F.);
#357 = EDGE_CURVE('',#319,#350,#358,.T.);
#358 = LINE('',#359,#360);
#359 = CARTESIAN_POINT('',(122.63800048828,113.21800231933,-0.2010029));
#360 = VECTOR('',#361,1.);
#361 = DIRECTION('',(0.834626502078,0.550816305158,0.E+000));
#362 = PLANE('',#363);
#363 = AXIS2_PLACEMENT_3D('',#364,#365,#366);
#364 = CARTESIAN_POINT('',(122.63800048828,113.21800231933,-0.2010029));
#365 = DIRECTION('',(-0.550816305158,0.834626502078,0.E+000));
#366 = DIRECTION('',(0.834626502078,0.550816305158,0.E+000));
#367 = ADVANCED_FACE('',(#368),#393,.F.);
#368 = FACE_BOUND('',#369,.F.);
#369 = EDGE_LOOP('',(#370,#371,#379,#387));
#370 = ORIENTED_EDGE('',*,*,#349,.T.);
#371 = ORIENTED_EDGE('',*,*,#372,.T.);
#372 = EDGE_CURVE('',#342,#373,#375,.T.);
#373 = VERTEX_POINT('',#374);
#374 = CARTESIAN_POINT('',(130.54200744628,118.74199676513,0.E+000));
#375 = LINE('',#376,#377);
#376 = CARTESIAN_POINT('',(127.25800323486,116.26699829101,0.E+000));
#377 = VECTOR('',#378,1.);
#378 = DIRECTION('',(0.798597663088,0.601865244479,0.E+000));
#379 = ORIENTED_EDGE('',*,*,#380,.F.);
#380 = EDGE_CURVE('',#381,#373,#383,.T.);
#381 = VERTEX_POINT('',#382);
#382 = CARTESIAN_POINT('',(130.54200744628,118.74199676513,-0.2010029));
#383 = LINE('',#384,#385);
#384 = CARTESIAN_POINT('',(130.54200744628,118.74199676513,-0.2010029));
#385 = VECTOR('',#386,1.);
#386 = DIRECTION('',(0.E+000,0.E+000,1.));
#387 = ORIENTED_EDGE('',*,*,#388,.F.);
#388 = EDGE_CURVE('',#350,#381,#389,.T.);
#389 = LINE('',#390,#391);
#390 = CARTESIAN_POINT('',(127.25800323486,116.26699829101,-0.2010029));
#391 = VECTOR('',#392,1.);
#392 = DIRECTION('',(0.798597663088,0.601865244479,0.E+000));
#393 = PLANE('',#394);
#394 = AXIS2_PLACEMENT_3D('',#395,#396,#397);
#395 = CARTESIAN_POINT('',(127.25800323486,116.26699829101,-0.2010029));
#396 = DIRECTION('',(-0.601865244479,0.798597663088,0.E+000));
#397 = DIRECTION('',(0.798597663088,0.601865244479,0.E+000));
#398 = ADVANCED_FACE('',(#399),#424,.F.);
#399 = FACE_BOUND('',#400,.F.);
#400 = EDGE_LOOP('',(#401,#402,#410,#418));
#401 = ORIENTED_EDGE('',*,*,#380,.T.);
#402 = ORIENTED_EDGE('',*,*,#403,.T.);
#403 = EDGE_CURVE('',#373,#404,#406,.T.);
#404 = VERTEX_POINT('',#405);
#405 = CARTESIAN_POINT('',(135.65600585937,123.06099700927,0.E+000));
#406 = LINE('',#407,#408);
#407 = CARTESIAN_POINT('',(130.54200744628,118.74199676513,0.E+000));
#408 = VECTOR('',#409,1.);
#409 = DIRECTION('',(0.763992159104,0.645225527104,0.E+000));
#410 = ORIENTED_EDGE('',*,*,#411,.F.);
#411 = EDGE_CURVE('',#412,#404,#414,.T.);
#412 = VERTEX_POINT('',#413);
#413 = CARTESIAN_POINT('',(135.65600585937,123.06099700927,-0.2010029));
#414 = LINE('',#415,#416);
#415 = CARTESIAN_POINT('',(135.65600585937,123.06099700927,-0.2010029));
#416 = VECTOR('',#417,1.);
#417 = DIRECTION('',(0.E+000,0.E+000,1.));
#418 = ORIENTED_EDGE('',*,*,#419,.F.);
#419 = EDGE_CURVE('',#381,#412,#420,.T.);
#420 = LINE('',#421,#422);
#421 = CARTESIAN_POINT('',(130.54200744628,118.74199676513,-0.2010029));
#422 = VECTOR('',#423,1.);
#423 = DIRECTION('',(0.763992159104,0.645225527104,0.E+000));
#424 = PLANE('',#425);
#425 = AXIS2_PLACEMENT_3D('',#426,#427,#428);
#426 = CARTESIAN_POINT('',(130.54200744628,118.74199676513,-0.2010029));
#427 = DIRECTION('',(-0.645225527104,0.763992159104,0.E+000));
#428 = DIRECTION('',(0.763992159104,0.645225527104,0.E+000));
#429 = ADVANCED_FACE('',(#430),#455,.F.);
#430 = FACE_BOUND('',#431,.F.);
#431 = EDGE_LOOP('',(#432,#433,#441,#449));
#432 = ORIENTED_EDGE('',*,*,#411,.T.);
#433 = ORIENTED_EDGE('',*,*,#434,.T.);
#434 = EDGE_CURVE('',#404,#435,#437,.T.);
#435 = VERTEX_POINT('',#436);
#436 = CARTESIAN_POINT('',(152.26600646972,137.01699829101,0.E+000));
#437 = LINE('',#438,#439);
#438 = CARTESIAN_POINT('',(135.65600585937,123.06099700927,0.E+000));
#439 = VECTOR('',#440,1.);
#440 = DIRECTION('',(0.765623117078,0.643289392573,0.E+000));
#441 = ORIENTED_EDGE('',*,*,#442,.F.);
#442 = EDGE_CURVE('',#443,#435,#445,.T.);
#443 = VERTEX_POINT('',#444);
#444 = CARTESIAN_POINT('',(152.26600646972,137.01699829101,-0.2010029));
#445 = LINE('',#446,#447);
#446 = CARTESIAN_POINT('',(152.26600646972,137.01699829101,-0.2010029));
#447 = VECTOR('',#448,1.);
#448 = DIRECTION('',(0.E+000,0.E+000,1.));
#449 = ORIENTED_EDGE('',*,*,#450,.F.);
#450 = EDGE_CURVE('',#412,#443,#451,.T.);
#451 = LINE('',#452,#453);
#452 = CARTESIAN_POINT('',(135.65600585937,123.06099700927,-0.2010029));
#453 = VECTOR('',#454,1.);
#454 = DIRECTION('',(0.765623117078,0.643289392573,0.E+000));
#455 = PLANE('',#456);
#456 = AXIS2_PLACEMENT_3D('',#457,#458,#459);
#457 = CARTESIAN_POINT('',(135.65600585937,123.06099700927,-0.2010029));
#458 = DIRECTION('',(-0.643289392573,0.765623117078,0.E+000));
#459 = DIRECTION('',(0.765623117078,0.643289392573,0.E+000));
#460 = ADVANCED_FACE('',(#461),#486,.F.);
#461 = FACE_BOUND('',#462,.F.);
#462 = EDGE_LOOP('',(#463,#464,#472,#480));
#463 = ORIENTED_EDGE('',*,*,#442,.T.);
#464 = ORIENTED_EDGE('',*,*,#465,.T.);
#465 = EDGE_CURVE('',#435,#466,#468,.T.);
#466 = VERTEX_POINT('',#467);
#467 = CARTESIAN_POINT('',(152.62100219726,136.60400390625,0.E+000));
#468 = LINE('',#469,#470);
#469 = CARTESIAN_POINT('',(152.26600646972,137.01699829101,0.E+000));
#470 = VECTOR('',#471,1.);
#471 = DIRECTION('',(0.651849838689,-0.758348065074,0.E+000));
#472 = ORIENTED_EDGE('',*,*,#473,.F.);
#473 = EDGE_CURVE('',#474,#466,#476,.T.);
#474 = VERTEX_POINT('',#475);
#475 = CARTESIAN_POINT('',(152.62100219726,136.60400390625,-0.2010029));
#476 = LINE('',#477,#478);
#477 = CARTESIAN_POINT('',(152.62100219726,136.60400390625,-0.2010029));
#478 = VECTOR('',#479,1.);
#479 = DIRECTION('',(0.E+000,0.E+000,1.));
#480 = ORIENTED_EDGE('',*,*,#481,.F.);
#481 = EDGE_CURVE('',#443,#474,#482,.T.);
#482 = LINE('',#483,#484);
#483 = CARTESIAN_POINT('',(152.26600646972,137.01699829101,-0.2010029));
#484 = VECTOR('',#485,1.);
#485 = DIRECTION('',(0.651849838689,-0.758348065074,0.E+000));
#486 = PLANE('',#487);
#487 = AXIS2_PLACEMENT_3D('',#488,#489,#490);
#488 = CARTESIAN_POINT('',(152.26600646972,137.01699829101,-0.2010029));
#489 = DIRECTION('',(0.758348065074,0.651849838689,-0.E+000));
#490 = DIRECTION('',(0.651849838689,-0.758348065074,0.E+000));
#491 = ADVANCED_FACE('',(#492),#517,.F.);
#492 = FACE_BOUND('',#493,.F.);
#493 = EDGE_LOOP('',(#494,#495,#503,#511));
#494 = ORIENTED_EDGE('',*,*,#473,.T.);
#495 = ORIENTED_EDGE('',*,*,#496,.T.);
#496 = EDGE_CURVE('',#466,#497,#499,.T.);
#497 = VERTEX_POINT('',#498);
#498 = CARTESIAN_POINT('',(153.15600585937,137.05299377441,0.E+000));
#499 = LINE('',#500,#501);
#500 = CARTESIAN_POINT('',(152.62100219726,136.60400390625,0.E+000));
#501 = VECTOR('',#502,1.);
#502 = DIRECTION('',(0.765996153425,0.642845154713,0.E+000));
#503 = ORIENTED_EDGE('',*,*,#504,.F.);
#504 = EDGE_CURVE('',#505,#497,#507,.T.);
#505 = VERTEX_POINT('',#506);
#506 = CARTESIAN_POINT('',(153.15600585937,137.05299377441,-0.2010029));
#507 = LINE('',#508,#509);
#508 = CARTESIAN_POINT('',(153.15600585937,137.05299377441,-0.2010029));
#509 = VECTOR('',#510,1.);
#510 = DIRECTION('',(0.E+000,0.E+000,1.));
#511 = ORIENTED_EDGE('',*,*,#512,.F.);
#512 = EDGE_CURVE('',#474,#505,#513,.T.);
#513 = LINE('',#514,#515);
#514 = CARTESIAN_POINT('',(152.62100219726,136.60400390625,-0.2010029));
#515 = VECTOR('',#516,1.);
#516 = DIRECTION('',(0.765996153425,0.642845154713,0.E+000));
#517 = PLANE('',#518);
#518 = AXIS2_PLACEMENT_3D('',#519,#520,#521);
#519 = CARTESIAN_POINT('',(152.62100219726,136.60400390625,-0.2010029));
#520 = DIRECTION('',(-0.642845154713,0.765996153425,0.E+000));
#521 = DIRECTION('',(0.765996153425,0.642845154713,0.E+000));
#522 = ADVANCED_FACE('',(#523),#548,.F.);
#523 = FACE_BOUND('',#524,.F.);
#524 = EDGE_LOOP('',(#525,#526,#534,#542));
#525 = ORIENTED_EDGE('',*,*,#504,.T.);
#526 = ORIENTED_EDGE('',*,*,#527,.T.);
#527 = EDGE_CURVE('',#497,#528,#530,.T.);
#528 = VERTEX_POINT('',#529);
#529 = CARTESIAN_POINT('',(153.10899353027,137.72999572753,0.E+000));
#530 = LINE('',#531,#532);
#531 = CARTESIAN_POINT('',(153.15600585937,137.05299377441,0.E+000));
#532 = VECTOR('',#533,1.);
#533 = DIRECTION('',(-6.927511237731E-002,0.997597593624,0.E+000));
#534 = ORIENTED_EDGE('',*,*,#535,.F.);
#535 = EDGE_CURVE('',#536,#528,#538,.T.);
#536 = VERTEX_POINT('',#537);
#537 = CARTESIAN_POINT('',(153.10899353027,137.72999572753,-0.2010029));
#538 = LINE('',#539,#540);
#539 = CARTESIAN_POINT('',(153.10899353027,137.72999572753,-0.2010029));
#540 = VECTOR('',#541,1.);
#541 = DIRECTION('',(0.E+000,0.E+000,1.));
#542 = ORIENTED_EDGE('',*,*,#543,.F.);
#543 = EDGE_CURVE('',#505,#536,#544,.T.);
#544 = LINE('',#545,#546);
#545 = CARTESIAN_POINT('',(153.15600585937,137.05299377441,-0.2010029));
#546 = VECTOR('',#547,1.);
#547 = DIRECTION('',(-6.927511237731E-002,0.997597593624,0.E+000));
#548 = PLANE('',#549);
#549 = AXIS2_PLACEMENT_3D('',#550,#551,#552);
#550 = CARTESIAN_POINT('',(153.15600585937,137.05299377441,-0.2010029));
#551 = DIRECTION('',(-0.997597593624,-6.927511237731E-002,0.E+000));
#552 = DIRECTION('',(-6.927511237731E-002,0.997597593624,0.E+000));
#553 = ADVANCED_FACE('',(#554),#579,.F.);
#554 = FACE_BOUND('',#555,.F.);
#555 = EDGE_LOOP('',(#556,#557,#565,#573));
#556 = ORIENTED_EDGE('',*,*,#535,.T.);
#557 = ORIENTED_EDGE('',*,*,#558,.T.);
#558 = EDGE_CURVE('',#528,#559,#561,.T.);
#559 = VERTEX_POINT('',#560);
#560 = CARTESIAN_POINT('',(153.95100402832,138.43800354003,0.E+000));
#561 = LINE('',#562,#563);
#562 = CARTESIAN_POINT('',(153.10899353027,137.72999572753,0.E+000));
#563 = VECTOR('',#564,1.);
#564 = DIRECTION('',(0.765382892836,0.643575191686,0.E+000));
#565 = ORIENTED_EDGE('',*,*,#566,.F.);
#566 = EDGE_CURVE('',#567,#559,#569,.T.);
#567 = VERTEX_POINT('',#568);
#568 = CARTESIAN_POINT('',(153.95100402832,138.43800354003,-0.2010029));
#569 = LINE('',#570,#571);
#570 = CARTESIAN_POINT('',(153.95100402832,138.43800354003,-0.2010029));
#571 = VECTOR('',#572,1.);
#572 = DIRECTION('',(0.E+000,0.E+000,1.));
#573 = ORIENTED_EDGE('',*,*,#574,.F.);
#574 = EDGE_CURVE('',#536,#567,#575,.T.);
#575 = LINE('',#576,#577);
#576 = CARTESIAN_POINT('',(153.10899353027,137.72999572753,-0.2010029));
#577 = VECTOR('',#578,1.);
#578 = DIRECTION('',(0.765382892836,0.643575191686,0.E+000));
#579 = PLANE('',#580);
#580 = AXIS2_PLACEMENT_3D('',#581,#582,#583);
#581 = CARTESIAN_POINT('',(153.10899353027,137.72999572753,-0.2010029));
#582 = DIRECTION('',(-0.643575191686,0.765382892836,0.E+000));
#583 = DIRECTION('',(0.765382892836,0.643575191686,0.E+000));
#584 = ADVANCED_FACE('',(#585),#610,.F.);
#585 = FACE_BOUND('',#586,.F.);
#586 = EDGE_LOOP('',(#587,#588,#596,#604));
#587 = ORIENTED_EDGE('',*,*,#566,.T.);
#588 = ORIENTED_EDGE('',*,*,#589,.T.);
#589 = EDGE_CURVE('',#559,#590,#592,.T.);
#590 = VERTEX_POINT('',#591);
#591 = CARTESIAN_POINT('',(134.34599304199,161.80099487304,0.E+000));
#592 = LINE('',#593,#594);
#593 = CARTESIAN_POINT('',(153.95100402832,138.43800354003,0.E+000));
#594 = VECTOR('',#595,1.);
#595 = DIRECTION('',(-0.642809420325,0.766026141291,0.E+000));
#596 = ORIENTED_EDGE('',*,*,#597,.F.);
#597 = EDGE_CURVE('',#598,#590,#600,.T.);
#598 = VERTEX_POINT('',#599);
#599 = CARTESIAN_POINT('',(134.34599304199,161.80099487304,-0.2010029));
#600 = LINE('',#601,#602);
#601 = CARTESIAN_POINT('',(134.34599304199,161.80099487304,-0.2010029));
#602 = VECTOR('',#603,1.);
#603 = DIRECTION('',(0.E+000,0.E+000,1.));
#604 = ORIENTED_EDGE('',*,*,#605,.F.);
#605 = EDGE_CURVE('',#567,#598,#606,.T.);
#606 = LINE('',#607,#608);
#607 = CARTESIAN_POINT('',(153.95100402832,138.43800354003,-0.2010029));
#608 = VECTOR('',#609,1.);
#609 = DIRECTION('',(-0.642809420325,0.766026141291,0.E+000));
#610 = PLANE('',#611);
#611 = AXIS2_PLACEMENT_3D('',#612,#613,#614);
#612 = CARTESIAN_POINT('',(153.95100402832,138.43800354003,-0.2010029));
#613 = DIRECTION('',(-0.766026141291,-0.642809420325,0.E+000));
#614 = DIRECTION('',(-0.642809420325,0.766026141291,0.E+000));
#615 = ADVANCED_FACE('',(#616),#641,.F.);
#616 = FACE_BOUND('',#617,.F.);
#617 = EDGE_LOOP('',(#618,#619,#627,#635));
#618 = ORIENTED_EDGE('',*,*,#597,.T.);
#619 = ORIENTED_EDGE('',*,*,#620,.T.);
#620 = EDGE_CURVE('',#590,#621,#623,.T.);
#621 = VERTEX_POINT('',#622);
#622 = CARTESIAN_POINT('',(133.50500488281,161.09599304199,0.E+000));
#623 = LINE('',#624,#625);
#624 = CARTESIAN_POINT('',(134.34599304199,161.80099487304,0.E+000));
#625 = VECTOR('',#626,1.);
#626 = DIRECTION('',(-0.766345447228,-0.642428716289,0.E+000));
#627 = ORIENTED_EDGE('',*,*,#628,.F.);
#628 = EDGE_CURVE('',#629,#621,#631,.T.);
#629 = VERTEX_POINT('',#630);
#630 = CARTESIAN_POINT('',(133.50500488281,161.09599304199,-0.2010029));
#631 = LINE('',#632,#633);
#632 = CARTESIAN_POINT('',(133.50500488281,161.09599304199,-0.2010029));
#633 = VECTOR('',#634,1.);
#634 = DIRECTION('',(0.E+000,0.E+000,1.));
#635 = ORIENTED_EDGE('',*,*,#636,.F.);
#636 = EDGE_CURVE('',#598,#629,#637,.T.);
#637 = LINE('',#638,#639);
#638 = CARTESIAN_POINT('',(134.34599304199,161.80099487304,-0.2010029));
#639 = VECTOR('',#640,1.);
#640 = DIRECTION('',(-0.766345447228,-0.642428716289,0.E+000));
#641 = PLANE('',#642);
#642 = AXIS2_PLACEMENT_3D('',#643,#644,#645);
#643 = CARTESIAN_POINT('',(134.34599304199,161.80099487304,-0.2010029));
#644 = DIRECTION('',(0.642428716289,-0.766345447228,0.E+000));
#645 = DIRECTION('',(-0.766345447228,-0.642428716289,0.E+000));
#646 = ADVANCED_FACE('',(#647),#672,.F.);
#647 = FACE_BOUND('',#648,.F.);
#648 = EDGE_LOOP('',(#649,#650,#658,#666));
#649 = ORIENTED_EDGE('',*,*,#628,.T.);
#650 = ORIENTED_EDGE('',*,*,#651,.T.);
#651 = EDGE_CURVE('',#621,#652,#654,.T.);
#652 = VERTEX_POINT('',#653);
#653 = CARTESIAN_POINT('',(132.84700012207,161.25900268554,0.E+000));
#654 = LINE('',#655,#656);
#655 = CARTESIAN_POINT('',(133.50500488281,161.09599304199,0.E+000));
#656 = VECTOR('',#657,1.);
#657 = DIRECTION('',(-0.970657998253,0.240464239393,0.E+000));
#658 = ORIENTED_EDGE('',*,*,#659,.F.);
#659 = EDGE_CURVE('',#660,#652,#662,.T.);
#660 = VERTEX_POINT('',#661);
#661 = CARTESIAN_POINT('',(132.84700012207,161.25900268554,-0.2010029));
#662 = LINE('',#663,#664);
#663 = CARTESIAN_POINT('',(132.84700012207,161.25900268554,-0.2010029));
#664 = VECTOR('',#665,1.);
#665 = DIRECTION('',(0.E+000,0.E+000,1.));
#666 = ORIENTED_EDGE('',*,*,#667,.F.);
#667 = EDGE_CURVE('',#629,#660,#668,.T.);
#668 = LINE('',#669,#670);
#669 = CARTESIAN_POINT('',(133.50500488281,161.09599304199,-0.2010029));
#670 = VECTOR('',#671,1.);
#671 = DIRECTION('',(-0.970657998253,0.240464239393,0.E+000));
#672 = PLANE('',#673);
#673 = AXIS2_PLACEMENT_3D('',#674,#675,#676);
#674 = CARTESIAN_POINT('',(133.50500488281,161.09599304199,-0.2010029));
#675 = DIRECTION('',(-0.240464239393,-0.970657998253,0.E+000));
#676 = DIRECTION('',(-0.970657998253,0.240464239393,0.E+000));
#677 = ADVANCED_FACE('',(#678),#703,.F.);
#678 = FACE_BOUND('',#679,.F.);
#679 = EDGE_LOOP('',(#680,#681,#689,#697));
#680 = ORIENTED_EDGE('',*,*,#659,.T.);
#681 = ORIENTED_EDGE('',*,*,#682,.T.);
#682 = EDGE_CURVE('',#652,#683,#685,.T.);
#683 = VERTEX_POINT('',#684);
#684 = CARTESIAN_POINT('',(132.3090057373,160.8090057373,0.E+000));
#685 = LINE('',#686,#687);
#686 = CARTESIAN_POINT('',(132.84700012207,161.25900268554,0.E+000));
#687 = VECTOR('',#688,1.);
#688 = DIRECTION('',(-0.767050201093,-0.641587086064,0.E+000));
#689 = ORIENTED_EDGE('',*,*,#690,.F.);
#690 = EDGE_CURVE('',#691,#683,#693,.T.);
#691 = VERTEX_POINT('',#692);
#692 = CARTESIAN_POINT('',(132.3090057373,160.8090057373,-0.2010029));
#693 = LINE('',#694,#695);
#694 = CARTESIAN_POINT('',(132.3090057373,160.8090057373,-0.2010029));
#695 = VECTOR('',#696,1.);
#696 = DIRECTION('',(0.E+000,0.E+000,1.));
#697 = ORIENTED_EDGE('',*,*,#698,.F.);
#698 = EDGE_CURVE('',#660,#691,#699,.T.);
#699 = LINE('',#700,#701);
#700 = CARTESIAN_POINT('',(132.84700012207,161.25900268554,-0.2010029));
#701 = VECTOR('',#702,1.);
#702 = DIRECTION('',(-0.767050201093,-0.641587086064,0.E+000));
#703 = PLANE('',#704);
#704 = AXIS2_PLACEMENT_3D('',#705,#706,#707);
#705 = CARTESIAN_POINT('',(132.84700012207,161.25900268554,-0.2010029));
#706 = DIRECTION('',(0.641587086064,-0.767050201093,0.E+000));
#707 = DIRECTION('',(-0.767050201093,-0.641587086064,0.E+000));
#708 = ADVANCED_FACE('',(#709),#734,.F.);
#709 = FACE_BOUND('',#710,.F.);
#710 = EDGE_LOOP('',(#711,#712,#720,#728));
#711 = ORIENTED_EDGE('',*,*,#690,.T.);
#712 = ORIENTED_EDGE('',*,*,#713,.T.);
#713 = EDGE_CURVE('',#683,#714,#716,.T.);
#714 = VERTEX_POINT('',#715);
#715 = CARTESIAN_POINT('',(132.65899658203,160.38600158691,0.E+000));
#716 = LINE('',#717,#718);
#717 = CARTESIAN_POINT('',(132.3090057373,160.8090057373,0.E+000));
#718 = VECTOR('',#719,1.);
#719 = DIRECTION('',(0.637479546225,-0.770467279088,0.E+000));
#720 = ORIENTED_EDGE('',*,*,#721,.F.);
#721 = EDGE_CURVE('',#722,#714,#724,.T.);
#722 = VERTEX_POINT('',#723);
#723 = CARTESIAN_POINT('',(132.65899658203,160.38600158691,-0.2010029));
#724 = LINE('',#725,#726);
#725 = CARTESIAN_POINT('',(132.65899658203,160.38600158691,-0.2010029));
#726 = VECTOR('',#727,1.);
#727 = DIRECTION('',(0.E+000,0.E+000,1.));
#728 = ORIENTED_EDGE('',*,*,#729,.F.);
#729 = EDGE_CURVE('',#691,#722,#730,.T.);
#730 = LINE('',#731,#732);
#731 = CARTESIAN_POINT('',(132.3090057373,160.8090057373,-0.2010029));
#732 = VECTOR('',#733,1.);
#733 = DIRECTION('',(0.637479546225,-0.770467279088,0.E+000));
#734 = PLANE('',#735);
#735 = AXIS2_PLACEMENT_3D('',#736,#737,#738);
#736 = CARTESIAN_POINT('',(132.3090057373,160.8090057373,-0.2010029));
#737 = DIRECTION('',(0.770467279088,0.637479546225,-0.E+000));
#738 = DIRECTION('',(0.637479546225,-0.770467279088,0.E+000));
#739 = ADVANCED_FACE('',(#740),#765,.F.);
#740 = FACE_BOUND('',#741,.F.);
#741 = EDGE_LOOP('',(#742,#743,#751,#759));
#742 = ORIENTED_EDGE('',*,*,#721,.T.);
#743 = ORIENTED_EDGE('',*,*,#744,.T.);
#744 = EDGE_CURVE('',#714,#745,#747,.T.);
#745 = VERTEX_POINT('',#746);
#746 = CARTESIAN_POINT('',(118.68000030517,148.67100524902,0.E+000));
#747 = LINE('',#748,#749);
#748 = CARTESIAN_POINT('',(132.65899658203,160.38600158691,0.E+000));
#749 = VECTOR('',#750,1.);
#750 = DIRECTION('',(-0.766443166044,-0.642312130684,0.E+000));
#751 = ORIENTED_EDGE('',*,*,#752,.F.);
#752 = EDGE_CURVE('',#753,#745,#755,.T.);
#753 = VERTEX_POINT('',#754);
#754 = CARTESIAN_POINT('',(118.68000030517,148.67100524902,-0.2010029));
#755 = LINE('',#756,#757);
#756 = CARTESIAN_POINT('',(118.68000030517,148.67100524902,-0.2010029));
#757 = VECTOR('',#758,1.);
#758 = DIRECTION('',(0.E+000,0.E+000,1.));
#759 = ORIENTED_EDGE('',*,*,#760,.F.);
#760 = EDGE_CURVE('',#722,#753,#761,.T.);
#761 = LINE('',#762,#763);
#762 = CARTESIAN_POINT('',(132.65899658203,160.38600158691,-0.2010029));
#763 = VECTOR('',#764,1.);
#764 = DIRECTION('',(-0.766443166044,-0.642312130684,0.E+000));
#765 = PLANE('',#766);
#766 = AXIS2_PLACEMENT_3D('',#767,#768,#769);
#767 = CARTESIAN_POINT('',(132.65899658203,160.38600158691,-0.2010029));
#768 = DIRECTION('',(0.642312130684,-0.766443166044,0.E+000));
#769 = DIRECTION('',(-0.766443166044,-0.642312130684,0.E+000));
#770 = ADVANCED_FACE('',(#771),#796,.F.);
#771 = FACE_BOUND('',#772,.F.);
#772 = EDGE_LOOP('',(#773,#774,#782,#790));
#773 = ORIENTED_EDGE('',*,*,#752,.T.);
#774 = ORIENTED_EDGE('',*,*,#775,.T.);
#775 = EDGE_CURVE('',#745,#776,#778,.T.);
#776 = VERTEX_POINT('',#777);
#777 = CARTESIAN_POINT('',(115.60199737548,145.88900756835,0.E+000));
#778 = LINE('',#779,#780);
#779 = CARTESIAN_POINT('',(118.68000030517,148.67100524902,0.E+000));
#780 = VECTOR('',#781,1.);
#781 = DIRECTION('',(-0.741878883671,-0.670533908139,0.E+000));
#782 = ORIENTED_EDGE('',*,*,#783,.F.);
#783 = EDGE_CURVE('',#784,#776,#786,.T.);
#784 = VERTEX_POINT('',#785);
#785 = CARTESIAN_POINT('',(115.60199737548,145.88900756835,-0.2010029));
#786 = LINE('',#787,#788);
#787 = CARTESIAN_POINT('',(115.60199737548,145.88900756835,-0.2010029));
#788 = VECTOR('',#789,1.);
#789 = DIRECTION('',(0.E+000,0.E+000,1.));
#790 = ORIENTED_EDGE('',*,*,#791,.F.);
#791 = EDGE_CURVE('',#753,#784,#792,.T.);
#792 = LINE('',#793,#794);
#793 = CARTESIAN_POINT('',(118.68000030517,148.67100524902,-0.2010029));
#794 = VECTOR('',#795,1.);
#795 = DIRECTION('',(-0.741878883671,-0.670533908139,0.E+000));
#796 = PLANE('',#797);
#797 = AXIS2_PLACEMENT_3D('',#798,#799,#800);
#798 = CARTESIAN_POINT('',(118.68000030517,148.67100524902,-0.2010029));
#799 = DIRECTION('',(0.670533908139,-0.741878883671,0.E+000));
#800 = DIRECTION('',(-0.741878883671,-0.670533908139,0.E+000));
#801 = ADVANCED_FACE('',(#802),#827,.F.);
#802 = FACE_BOUND('',#803,.F.);
#803 = EDGE_LOOP('',(#804,#805,#813,#821));
#804 = ORIENTED_EDGE('',*,*,#783,.T.);
#805 = ORIENTED_EDGE('',*,*,#806,.T.);
#806 = EDGE_CURVE('',#776,#807,#809,.T.);
#807 = VERTEX_POINT('',#808);
#808 = CARTESIAN_POINT('',(110.89600372314,142.07800292968,0.E+000));
#809 = LINE('',#810,#811);
#810 = CARTESIAN_POINT('',(115.60199737548,145.88900756835,0.E+000));
#811 = VECTOR('',#812,1.);
#812 = DIRECTION('',(-0.77713254486,-0.629336958806,0.E+000));
#813 = ORIENTED_EDGE('',*,*,#814,.F.);
#814 = EDGE_CURVE('',#815,#807,#817,.T.);
#815 = VERTEX_POINT('',#816);
#816 = CARTESIAN_POINT('',(110.89600372314,142.07800292968,-0.2010029));
#817 = LINE('',#818,#819);
#818 = CARTESIAN_POINT('',(110.89600372314,142.07800292968,-0.2010029));
#819 = VECTOR('',#820,1.);
#820 = DIRECTION('',(0.E+000,0.E+000,1.));
#821 = ORIENTED_EDGE('',*,*,#822,.F.);
#822 = EDGE_CURVE('',#784,#815,#823,.T.);
#823 = LINE('',#824,#825);
#824 = CARTESIAN_POINT('',(115.60199737548,145.88900756835,-0.2010029));
#825 = VECTOR('',#826,1.);
#826 = DIRECTION('',(-0.77713254486,-0.629336958806,0.E+000));
#827 = PLANE('',#828);
#828 = AXIS2_PLACEMENT_3D('',#829,#830,#831);
#829 = CARTESIAN_POINT('',(115.60199737548,145.88900756835,-0.2010029));
#830 = DIRECTION('',(0.629336958806,-0.77713254486,0.E+000));
#831 = DIRECTION('',(-0.77713254486,-0.629336958806,0.E+000));
#832 = ADVANCED_FACE('',(#833),#858,.F.);
#833 = FACE_BOUND('',#834,.F.);
#834 = EDGE_LOOP('',(#835,#836,#844,#852));
#835 = ORIENTED_EDGE('',*,*,#814,.T.);
#836 = ORIENTED_EDGE('',*,*,#837,.T.);
#837 = EDGE_CURVE('',#807,#838,#840,.T.);
#838 = VERTEX_POINT('',#839);
#839 = CARTESIAN_POINT('',(104.5650024414,137.87699890136,0.E+000));
#840 = LINE('',#841,#842);
#841 = CARTESIAN_POINT('',(110.89600372314,142.07800292968,0.E+000));
#842 = VECTOR('',#843,1.);
#843 = DIRECTION('',(-0.833242814658,-0.552907236181,0.E+000));
#844 = ORIENTED_EDGE('',*,*,#845,.F.);
#845 = EDGE_CURVE('',#846,#838,#848,.T.);
#846 = VERTEX_POINT('',#847);
#847 = CARTESIAN_POINT('',(104.5650024414,137.87699890136,-0.2010029));
#848 = LINE('',#849,#850);
#849 = CARTESIAN_POINT('',(104.5650024414,137.87699890136,-0.2010029));
#850 = VECTOR('',#851,1.);
#851 = DIRECTION('',(0.E+000,0.E+000,1.));
#852 = ORIENTED_EDGE('',*,*,#853,.F.);
#853 = EDGE_CURVE('',#815,#846,#854,.T.);
#854 = LINE('',#855,#856);
#855 = CARTESIAN_POINT('',(110.89600372314,142.07800292968,-0.2010029));
#856 = VECTOR('',#857,1.);
#857 = DIRECTION('',(-0.833242814658,-0.552907236181,0.E+000));
#858 = PLANE('',#859);
#859 = AXIS2_PLACEMENT_3D('',#860,#861,#862);
#860 = CARTESIAN_POINT('',(110.89600372314,142.07800292968,-0.2010029));
#861 = DIRECTION('',(0.552907236181,-0.833242814658,0.E+000));
#862 = DIRECTION('',(-0.833242814658,-0.552907236181,0.E+000));
#863 = ADVANCED_FACE('',(#864),#889,.F.);
#864 = FACE_BOUND('',#865,.F.);
#865 = EDGE_LOOP('',(#866,#867,#875,#883));
#866 = ORIENTED_EDGE('',*,*,#845,.T.);
#867 = ORIENTED_EDGE('',*,*,#868,.T.);
#868 = EDGE_CURVE('',#838,#869,#871,.T.);
#869 = VERTEX_POINT('',#870);
#870 = CARTESIAN_POINT('',(99.313003540039,134.99099731445,0.E+000));
#871 = LINE('',#872,#873);
#872 = CARTESIAN_POINT('',(104.5650024414,137.87699890136,0.E+000));
#873 = VECTOR('',#874,1.);
#874 = DIRECTION('',(-0.876398895304,-0.481585897125,0.E+000));
#875 = ORIENTED_EDGE('',*,*,#876,.F.);
#876 = EDGE_CURVE('',#877,#869,#879,.T.);
#877 = VERTEX_POINT('',#878);
#878 = CARTESIAN_POINT('',(99.313003540039,134.99099731445,-0.2010029));
#879 = LINE('',#880,#881);
#880 = CARTESIAN_POINT('',(99.313003540039,134.99099731445,-0.2010029));
#881 = VECTOR('',#882,1.);
#882 = DIRECTION('',(0.E+000,0.E+000,1.));
#883 = ORIENTED_EDGE('',*,*,#884,.F.);
#884 = EDGE_CURVE('',#846,#877,#885,.T.);
#885 = LINE('',#886,#887);
#886 = CARTESIAN_POINT('',(104.5650024414,137.87699890136,-0.2010029));
#887 = VECTOR('',#888,1.);
#888 = DIRECTION('',(-0.876398895304,-0.481585897125,0.E+000));
#889 = PLANE('',#890);
#890 = AXIS2_PLACEMENT_3D('',#891,#892,#893);
#891 = CARTESIAN_POINT('',(104.5650024414,137.87699890136,-0.2010029));
#892 = DIRECTION('',(0.481585897125,-0.876398895304,0.E+000));
#893 = DIRECTION('',(-0.876398895304,-0.481585897125,0.E+000));
#894 = ADVANCED_FACE('',(#895),#920,.F.);
#895 = FACE_BOUND('',#896,.F.);
#896 = EDGE_LOOP('',(#897,#898,#906,#914));
#897 = ORIENTED_EDGE('',*,*,#876,.T.);
#898 = ORIENTED_EDGE('',*,*,#899,.T.);
#899 = EDGE_CURVE('',#869,#900,#902,.T.);
#900 = VERTEX_POINT('',#901);
#901 = CARTESIAN_POINT('',(94.746002197266,132.88600158691,0.E+000));
#902 = LINE('',#903,#904);
#903 = CARTESIAN_POINT('',(99.313003540039,134.99099731445,0.E+000));
#904 = VECTOR('',#905,1.);
#905 = DIRECTION('',(-0.908174980705,-0.418590736188,0.E+000));
#906 = ORIENTED_EDGE('',*,*,#907,.F.);
#907 = EDGE_CURVE('',#908,#900,#910,.T.);
#908 = VERTEX_POINT('',#909);
#909 = CARTESIAN_POINT('',(94.746002197266,132.88600158691,-0.2010029));
#910 = LINE('',#911,#912);
#911 = CARTESIAN_POINT('',(94.746002197266,132.88600158691,-0.2010029));
#912 = VECTOR('',#913,1.);
#913 = DIRECTION('',(0.E+000,0.E+000,1.));
#914 = ORIENTED_EDGE('',*,*,#915,.F.);
#915 = EDGE_CURVE('',#877,#908,#916,.T.);
#916 = LINE('',#917,#918);
#917 = CARTESIAN_POINT('',(99.313003540039,134.99099731445,-0.2010029));
#918 = VECTOR('',#919,1.);
#919 = DIRECTION('',(-0.908174980705,-0.418590736188,0.E+000));
#920 = PLANE('',#921);
#921 = AXIS2_PLACEMENT_3D('',#922,#923,#924);
#922 = CARTESIAN_POINT('',(99.313003540039,134.99099731445,-0.2010029));
#923 = DIRECTION('',(0.418590736188,-0.908174980705,0.E+000));
#924 = DIRECTION('',(-0.908174980705,-0.418590736188,0.E+000));
#925 = ADVANCED_FACE('',(#926),#951,.F.);
#926 = FACE_BOUND('',#927,.F.);
#927 = EDGE_LOOP('',(#928,#929,#937,#945));
#928 = ORIENTED_EDGE('',*,*,#907,.T.);
#929 = ORIENTED_EDGE('',*,*,#930,.T.);
#930 = EDGE_CURVE('',#900,#931,#933,.T.);
#931 = VERTEX_POINT('',#932);
#932 = CARTESIAN_POINT('',(91.026000976563,131.42500305175,0.E+000));
#933 = LINE('',#934,#935);
#934 = CARTESIAN_POINT('',(94.746002197266,132.88600158691,0.E+000));
#935 = VECTOR('',#936,1.);
#936 = DIRECTION('',(-0.930788149317,-0.36555905281,0.E+000));
#937 = ORIENTED_EDGE('',*,*,#938,.F.);
#938 = EDGE_CURVE('',#939,#931,#941,.T.);
#939 = VERTEX_POINT('',#940);
#940 = CARTESIAN_POINT('',(91.026000976563,131.42500305175,-0.2010029));
#941 = LINE('',#942,#943);
#942 = CARTESIAN_POINT('',(91.026000976563,131.42500305175,-0.2010029));
#943 = VECTOR('',#944,1.);
#944 = DIRECTION('',(0.E+000,0.E+000,1.));
#945 = ORIENTED_EDGE('',*,*,#946,.F.);
#946 = EDGE_CURVE('',#908,#939,#947,.T.);
#947 = LINE('',#948,#949);
#948 = CARTESIAN_POINT('',(94.746002197266,132.88600158691,-0.2010029));
#949 = VECTOR('',#950,1.);
#950 = DIRECTION('',(-0.930788149317,-0.36555905281,0.E+000));
#951 = PLANE('',#952);
#952 = AXIS2_PLACEMENT_3D('',#953,#954,#955);
#953 = CARTESIAN_POINT('',(94.746002197266,132.88600158691,-0.2010029));
#954 = DIRECTION('',(0.36555905281,-0.930788149317,0.E+000));
#955 = DIRECTION('',(-0.930788149317,-0.36555905281,0.E+000));
#956 = ADVANCED_FACE('',(#957),#982,.F.);
#957 = FACE_BOUND('',#958,.F.);
#958 = EDGE_LOOP('',(#959,#960,#968,#976));
#959 = ORIENTED_EDGE('',*,*,#938,.T.);
#960 = ORIENTED_EDGE('',*,*,#961,.T.);
#961 = EDGE_CURVE('',#931,#962,#964,.T.);
#962 = VERTEX_POINT('',#963);
#963 = CARTESIAN_POINT('',(89.153999328613,130.76499938964,0.E+000));
#964 = LINE('',#965,#966);
#965 = CARTESIAN_POINT('',(91.026000976563,131.42500305175,0.E+000));
#966 = VECTOR('',#967,1.);
#967 = DIRECTION('',(-0.943101403492,-0.332505252187,0.E+000));
#968 = ORIENTED_EDGE('',*,*,#969,.F.);
#969 = EDGE_CURVE('',#970,#962,#972,.T.);
#970 = VERTEX_POINT('',#971);
#971 = CARTESIAN_POINT('',(89.153999328613,130.76499938964,-0.2010029));
#972 = LINE('',#973,#974);
#973 = CARTESIAN_POINT('',(89.153999328613,130.76499938964,-0.2010029));
#974 = VECTOR('',#975,1.);
#975 = DIRECTION('',(0.E+000,0.E+000,1.));
#976 = ORIENTED_EDGE('',*,*,#977,.F.);
#977 = EDGE_CURVE('',#939,#970,#978,.T.);
#978 = LINE('',#979,#980);
#979 = CARTESIAN_POINT('',(91.026000976563,131.42500305175,-0.2010029));
#980 = VECTOR('',#981,1.);
#981 = DIRECTION('',(-0.943101403492,-0.332505252187,0.E+000));
#982 = PLANE('',#983);
#983 = AXIS2_PLACEMENT_3D('',#984,#985,#986);
#984 = CARTESIAN_POINT('',(91.026000976563,131.42500305175,-0.2010029));
#985 = DIRECTION('',(0.332505252187,-0.943101403492,0.E+000));
#986 = DIRECTION('',(-0.943101403492,-0.332505252187,0.E+000));
#987 = ADVANCED_FACE('',(#988),#1013,.F.);
#988 = FACE_BOUND('',#989,.F.);
#989 = EDGE_LOOP('',(#990,#991,#999,#1007));
#990 = ORIENTED_EDGE('',*,*,#969,.T.);
#991 = ORIENTED_EDGE('',*,*,#992,.T.);
#992 = EDGE_CURVE('',#962,#993,#995,.T.);
#993 = VERTEX_POINT('',#994);
#994 = CARTESIAN_POINT('',(85.387001037598,129.63999938964,0.E+000));
#995 = LINE('',#996,#997);
#996 = CARTESIAN_POINT('',(89.153999328613,130.76499938964,0.E+000));
#997 = VECTOR('',#998,1.);
#998 = DIRECTION('',(-0.958182550817,-0.286157647653,0.E+000));
#999 = ORIENTED_EDGE('',*,*,#1000,.F.);
#1000 = EDGE_CURVE('',#1001,#993,#1003,.T.);
#1001 = VERTEX_POINT('',#1002);
#1002 = CARTESIAN_POINT('',(85.387001037598,129.63999938964,-0.2010029)
  );
#1003 = LINE('',#1004,#1005);
#1004 = CARTESIAN_POINT('',(85.387001037598,129.63999938964,-0.2010029)
  );
#1005 = VECTOR('',#1006,1.);
#1006 = DIRECTION('',(0.E+000,0.E+000,1.));
#1007 = ORIENTED_EDGE('',*,*,#1008,.F.);
#1008 = EDGE_CURVE('',#970,#1001,#1009,.T.);
#1009 = LINE('',#1010,#1011);
#1010 = CARTESIAN_POINT('',(89.153999328613,130.76499938964,-0.2010029)
  );
#1011 = VECTOR('',#1012,1.);
#1012 = DIRECTION('',(-0.958182550817,-0.286157647653,0.E+000));
#1013 = PLANE('',#1014);
#1014 = AXIS2_PLACEMENT_3D('',#1015,#1016,#1017);
#1015 = CARTESIAN_POINT('',(89.153999328613,130.76499938964,-0.2010029)
  );
#1016 = DIRECTION('',(0.286157647653,-0.958182550817,0.E+000));
#1017 = DIRECTION('',(-0.958182550817,-0.286157647653,0.E+000));
#1018 = ADVANCED_FACE('',(#1019),#1044,.F.);
#1019 = FACE_BOUND('',#1020,.F.);
#1020 = EDGE_LOOP('',(#1021,#1022,#1030,#1038));
#1021 = ORIENTED_EDGE('',*,*,#1000,.T.);
#1022 = ORIENTED_EDGE('',*,*,#1023,.T.);
#1023 = EDGE_CURVE('',#993,#1024,#1026,.T.);
#1024 = VERTEX_POINT('',#1025);
#1025 = CARTESIAN_POINT('',(82.281997680664,128.80799865722,0.E+000));
#1026 = LINE('',#1027,#1028);
#1027 = CARTESIAN_POINT('',(85.387001037598,129.63999938964,0.E+000));
#1028 = VECTOR('',#1029,1.);
#1029 = DIRECTION('',(-0.965924458239,-0.258824150681,0.E+000));
#1030 = ORIENTED_EDGE('',*,*,#1031,.F.);
#1031 = EDGE_CURVE('',#1032,#1024,#1034,.T.);
#1032 = VERTEX_POINT('',#1033);
#1033 = CARTESIAN_POINT('',(82.281997680664,128.80799865722,-0.2010029)
  );
#1034 = LINE('',#1035,#1036);
#1035 = CARTESIAN_POINT('',(82.281997680664,128.80799865722,-0.2010029)
  );
#1036 = VECTOR('',#1037,1.);
#1037 = DIRECTION('',(0.E+000,0.E+000,1.));
#1038 = ORIENTED_EDGE('',*,*,#1039,.F.);
#1039 = EDGE_CURVE('',#1001,#1032,#1040,.T.);
#1040 = LINE('',#1041,#1042);
#1041 = CARTESIAN_POINT('',(85.387001037598,129.63999938964,-0.2010029)
  );
#1042 = VECTOR('',#1043,1.);
#1043 = DIRECTION('',(-0.965924458239,-0.258824150681,0.E+000));
#1044 = PLANE('',#1045);
#1045 = AXIS2_PLACEMENT_3D('',#1046,#1047,#1048);
#1046 = CARTESIAN_POINT('',(85.387001037598,129.63999938964,-0.2010029)
  );
#1047 = DIRECTION('',(0.258824150681,-0.965924458239,0.E+000));
#1048 = DIRECTION('',(-0.965924458239,-0.258824150681,0.E+000));
#1049 = ADVANCED_FACE('',(#1050),#1075,.F.);
#1050 = FACE_BOUND('',#1051,.F.);
#1051 = EDGE_LOOP('',(#1052,#1053,#1061,#1069));
#1052 = ORIENTED_EDGE('',*,*,#1031,.T.);
#1053 = ORIENTED_EDGE('',*,*,#1054,.T.);
#1054 = EDGE_CURVE('',#1024,#1055,#1057,.T.);
#1055 = VERTEX_POINT('',#1056);
#1056 = CARTESIAN_POINT('',(79.454002380371,128.20899963378,0.E+000));
#1057 = LINE('',#1058,#1059);
#1058 = CARTESIAN_POINT('',(82.281997680664,128.80799865722,0.E+000));
#1059 = VECTOR('',#1060,1.);
#1060 = DIRECTION('',(-0.97829578896,-0.207213294223,0.E+000));
#1061 = ORIENTED_EDGE('',*,*,#1062,.F.);
#1062 = EDGE_CURVE('',#1063,#1055,#1065,.T.);
#1063 = VERTEX_POINT('',#1064);
#1064 = CARTESIAN_POINT('',(79.454002380371,128.20899963378,-0.2010029)
  );
#1065 = LINE('',#1066,#1067);
#1066 = CARTESIAN_POINT('',(79.454002380371,128.20899963378,-0.2010029)
  );
#1067 = VECTOR('',#1068,1.);
#1068 = DIRECTION('',(0.E+000,0.E+000,1.));
#1069 = ORIENTED_EDGE('',*,*,#1070,.F.);
#1070 = EDGE_CURVE('',#1032,#1063,#1071,.T.);
#1071 = LINE('',#1072,#1073);
#1072 = CARTESIAN_POINT('',(82.281997680664,128.80799865722,-0.2010029)
  );
#1073 = VECTOR('',#1074,1.);
#1074 = DIRECTION('',(-0.97829578896,-0.207213294223,0.E+000));
#1075 = PLANE('',#1076);
#1076 = AXIS2_PLACEMENT_3D('',#1077,#1078,#1079);
#1077 = CARTESIAN_POINT('',(82.281997680664,128.80799865722,-0.2010029)
  );
#1078 = DIRECTION('',(0.207213294223,-0.97829578896,0.E+000));
#1079 = DIRECTION('',(-0.97829578896,-0.207213294223,0.E+000));
#1080 = ADVANCED_FACE('',(#1081),#1106,.F.);
#1081 = FACE_BOUND('',#1082,.F.);
#1082 = EDGE_LOOP('',(#1083,#1084,#1092,#1100));
#1083 = ORIENTED_EDGE('',*,*,#1062,.T.);
#1084 = ORIENTED_EDGE('',*,*,#1085,.T.);
#1085 = EDGE_CURVE('',#1055,#1086,#1088,.T.);
#1086 = VERTEX_POINT('',#1087);
#1087 = CARTESIAN_POINT('',(73.432998657227,127.27799987793,0.E+000));
#1088 = LINE('',#1089,#1090);
#1089 = CARTESIAN_POINT('',(79.454002380371,128.20899963378,0.E+000));
#1090 = VECTOR('',#1091,1.);
#1091 = DIRECTION('',(-0.988255683372,-0.152809372366,0.E+000));
#1092 = ORIENTED_EDGE('',*,*,#1093,.F.);
#1093 = EDGE_CURVE('',#1094,#1086,#1096,.T.);
#1094 = VERTEX_POINT('',#1095);
#1095 = CARTESIAN_POINT('',(73.432998657227,127.27799987793,-0.2010029)
  );
#1096 = LINE('',#1097,#1098);
#1097 = CARTESIAN_POINT('',(73.432998657227,127.27799987793,-0.2010029)
  );
#1098 = VECTOR('',#1099,1.);
#1099 = DIRECTION('',(0.E+000,0.E+000,1.));
#1100 = ORIENTED_EDGE('',*,*,#1101,.F.);
#1101 = EDGE_CURVE('',#1063,#1094,#1102,.T.);
#1102 = LINE('',#1103,#1104);
#1103 = CARTESIAN_POINT('',(79.454002380371,128.20899963378,-0.2010029)
  );
#1104 = VECTOR('',#1105,1.);
#1105 = DIRECTION('',(-0.988255683372,-0.152809372366,0.E+000));
#1106 = PLANE('',#1107);
#1107 = AXIS2_PLACEMENT_3D('',#1108,#1109,#1110);
#1108 = CARTESIAN_POINT('',(79.454002380371,128.20899963378,-0.2010029)
  );
#1109 = DIRECTION('',(0.152809372366,-0.988255683372,0.E+000));
#1110 = DIRECTION('',(-0.988255683372,-0.152809372366,0.E+000));
#1111 = ADVANCED_FACE('',(#1112),#1137,.F.);
#1112 = FACE_BOUND('',#1113,.F.);
#1113 = EDGE_LOOP('',(#1114,#1115,#1123,#1131));
#1114 = ORIENTED_EDGE('',*,*,#1093,.T.);
#1115 = ORIENTED_EDGE('',*,*,#1116,.T.);
#1116 = EDGE_CURVE('',#1086,#1117,#1119,.T.);
#1117 = VERTEX_POINT('',#1118);
#1118 = CARTESIAN_POINT('',(70.915000915527,127.02999877929,0.E+000));
#1119 = LINE('',#1120,#1121);
#1120 = CARTESIAN_POINT('',(73.432998657227,127.27799987793,0.E+000));
#1121 = VECTOR('',#1122,1.);
#1122 = DIRECTION('',(-0.995184727929,-9.801712756995E-002,0.E+000));
#1123 = ORIENTED_EDGE('',*,*,#1124,.F.);
#1124 = EDGE_CURVE('',#1125,#1117,#1127,.T.);
#1125 = VERTEX_POINT('',#1126);
#1126 = CARTESIAN_POINT('',(70.915000915527,127.02999877929,-0.2010029)
  );
#1127 = LINE('',#1128,#1129);
#1128 = CARTESIAN_POINT('',(70.915000915527,127.02999877929,-0.2010029)
  );
#1129 = VECTOR('',#1130,1.);
#1130 = DIRECTION('',(0.E+000,0.E+000,1.));
#1131 = ORIENTED_EDGE('',*,*,#1132,.F.);
#1132 = EDGE_CURVE('',#1094,#1125,#1133,.T.);
#1133 = LINE('',#1134,#1135);
#1134 = CARTESIAN_POINT('',(73.432998657227,127.27799987793,-0.2010029)
  );
#1135 = VECTOR('',#1136,1.);
#1136 = DIRECTION('',(-0.995184727929,-9.801712756995E-002,0.E+000));
#1137 = PLANE('',#1138);
#1138 = AXIS2_PLACEMENT_3D('',#1139,#1140,#1141);
#1139 = CARTESIAN_POINT('',(73.432998657227,127.27799987793,-0.2010029)
  );
#1140 = DIRECTION('',(9.801712756995E-002,-0.995184727929,0.E+000));
#1141 = DIRECTION('',(-0.995184727929,-9.801712756995E-002,0.E+000));
#1142 = ADVANCED_FACE('',(#1143),#1168,.F.);
#1143 = FACE_BOUND('',#1144,.F.);
#1144 = EDGE_LOOP('',(#1145,#1146,#1154,#1162));
#1145 = ORIENTED_EDGE('',*,*,#1124,.T.);
#1146 = ORIENTED_EDGE('',*,*,#1147,.T.);
#1147 = EDGE_CURVE('',#1117,#1148,#1150,.T.);
#1148 = VERTEX_POINT('',#1149);
#1149 = CARTESIAN_POINT('',(66.532997131348,126.79100036621,0.E+000));
#1150 = LINE('',#1151,#1152);
#1151 = CARTESIAN_POINT('',(70.915000915527,127.02999877929,0.E+000));
#1152 = VECTOR('',#1153,1.);
#1153 = DIRECTION('',(-0.998515955458,-5.445995497699E-002,0.E+000));
#1154 = ORIENTED_EDGE('',*,*,#1155,.F.);
#1155 = EDGE_CURVE('',#1156,#1148,#1158,.T.);
#1156 = VERTEX_POINT('',#1157);
#1157 = CARTESIAN_POINT('',(66.532997131348,126.79100036621,-0.2010029)
  );
#1158 = LINE('',#1159,#1160);
#1159 = CARTESIAN_POINT('',(66.532997131348,126.79100036621,-0.2010029)
  );
#1160 = VECTOR('',#1161,1.);
#1161 = DIRECTION('',(0.E+000,0.E+000,1.));
#1162 = ORIENTED_EDGE('',*,*,#1163,.F.);
#1163 = EDGE_CURVE('',#1125,#1156,#1164,.T.);
#1164 = LINE('',#1165,#1166);
#1165 = CARTESIAN_POINT('',(70.915000915527,127.02999877929,-0.2010029)
  );
#1166 = VECTOR('',#1167,1.);
#1167 = DIRECTION('',(-0.998515955458,-5.445995497699E-002,0.E+000));
#1168 = PLANE('',#1169);
#1169 = AXIS2_PLACEMENT_3D('',#1170,#1171,#1172);
#1170 = CARTESIAN_POINT('',(70.915000915527,127.02999877929,-0.2010029)
  );
#1171 = DIRECTION('',(5.445995497699E-002,-0.998515955458,0.E+000));
#1172 = DIRECTION('',(-0.998515955458,-5.445995497699E-002,0.E+000));
#1173 = ADVANCED_FACE('',(#1174),#1199,.F.);
#1174 = FACE_BOUND('',#1175,.F.);
#1175 = EDGE_LOOP('',(#1176,#1177,#1185,#1193));
#1176 = ORIENTED_EDGE('',*,*,#1155,.T.);
#1177 = ORIENTED_EDGE('',*,*,#1178,.T.);
#1178 = EDGE_CURVE('',#1148,#1179,#1181,.T.);
#1179 = VERTEX_POINT('',#1180);
#1180 = CARTESIAN_POINT('',(64.392997741699,126.77200317382,0.E+000));
#1181 = LINE('',#1182,#1183);
#1182 = CARTESIAN_POINT('',(66.532997131348,126.79100036621,0.E+000));
#1183 = VECTOR('',#1184,1.);
#1184 = DIRECTION('',(-0.999960600031,-8.876845472906E-003,0.E+000));
#1185 = ORIENTED_EDGE('',*,*,#1186,.F.);
#1186 = EDGE_CURVE('',#1187,#1179,#1189,.T.);
#1187 = VERTEX_POINT('',#1188);
#1188 = CARTESIAN_POINT('',(64.392997741699,126.77200317382,-0.2010029)
  );
#1189 = LINE('',#1190,#1191);
#1190 = CARTESIAN_POINT('',(64.392997741699,126.77200317382,-0.2010029)
  );
#1191 = VECTOR('',#1192,1.);
#1192 = DIRECTION('',(0.E+000,0.E+000,1.));
#1193 = ORIENTED_EDGE('',*,*,#1194,.F.);
#1194 = EDGE_CURVE('',#1156,#1187,#1195,.T.);
#1195 = LINE('',#1196,#1197);
#1196 = CARTESIAN_POINT('',(66.532997131348,126.79100036621,-0.2010029)
  );
#1197 = VECTOR('',#1198,1.);
#1198 = DIRECTION('',(-0.999960600031,-8.876845472906E-003,0.E+000));
#1199 = PLANE('',#1200);
#1200 = AXIS2_PLACEMENT_3D('',#1201,#1202,#1203);
#1201 = CARTESIAN_POINT('',(66.532997131348,126.79100036621,-0.2010029)
  );
#1202 = DIRECTION('',(8.876845472906E-003,-0.999960600031,0.E+000));
#1203 = DIRECTION('',(-0.999960600031,-8.876845472906E-003,0.E+000));
#1204 = ADVANCED_FACE('',(#1205),#1230,.F.);
#1205 = FACE_BOUND('',#1206,.F.);
#1206 = EDGE_LOOP('',(#1207,#1208,#1216,#1224));
#1207 = ORIENTED_EDGE('',*,*,#1186,.T.);
#1208 = ORIENTED_EDGE('',*,*,#1209,.T.);
#1209 = EDGE_CURVE('',#1179,#1210,#1212,.T.);
#1210 = VERTEX_POINT('',#1211);
#1211 = CARTESIAN_POINT('',(40.293998718262,126.77300262451,0.E+000));
#1212 = LINE('',#1213,#1214);
#1213 = CARTESIAN_POINT('',(64.392997741699,126.77200317382,0.E+000));
#1214 = VECTOR('',#1215,1.);
#1215 = DIRECTION('',(-0.99999999914,4.147270522573E-005,0.E+000));
#1216 = ORIENTED_EDGE('',*,*,#1217,.F.);
#1217 = EDGE_CURVE('',#1218,#1210,#1220,.T.);
#1218 = VERTEX_POINT('',#1219);
#1219 = CARTESIAN_POINT('',(40.293998718262,126.77300262451,-0.2010029)
  );
#1220 = LINE('',#1221,#1222);
#1221 = CARTESIAN_POINT('',(40.293998718262,126.77300262451,-0.2010029)
  );
#1222 = VECTOR('',#1223,1.);
#1223 = DIRECTION('',(0.E+000,0.E+000,1.));
#1224 = ORIENTED_EDGE('',*,*,#1225,.F.);
#1225 = EDGE_CURVE('',#1187,#1218,#1226,.T.);
#1226 = LINE('',#1227,#1228);
#1227 = CARTESIAN_POINT('',(64.392997741699,126.77200317382,-0.2010029)
  );
#1228 = VECTOR('',#1229,1.);
#1229 = DIRECTION('',(-0.99999999914,4.147270522573E-005,0.E+000));
#1230 = PLANE('',#1231);
#1231 = AXIS2_PLACEMENT_3D('',#1232,#1233,#1234);
#1232 = CARTESIAN_POINT('',(64.392997741699,126.77200317382,-0.2010029)
  );
#1233 = DIRECTION('',(-4.147270522573E-005,-0.99999999914,0.E+000));
#1234 = DIRECTION('',(-0.99999999914,4.147270522573E-005,0.E+000));
#1235 = ADVANCED_FACE('',(#1236),#1261,.F.);
#1236 = FACE_BOUND('',#1237,.F.);
#1237 = EDGE_LOOP('',(#1238,#1239,#1247,#1255));
#1238 = ORIENTED_EDGE('',*,*,#1217,.T.);
#1239 = ORIENTED_EDGE('',*,*,#1240,.T.);
#1240 = EDGE_CURVE('',#1210,#1241,#1243,.T.);
#1241 = VERTEX_POINT('',#1242);
#1242 = CARTESIAN_POINT('',(40.285999298096,127.31700134277,0.E+000));
#1243 = LINE('',#1244,#1245);
#1244 = CARTESIAN_POINT('',(40.293998718262,126.77300262451,0.E+000));
#1245 = VECTOR('',#1246,1.);
#1246 = DIRECTION('',(-1.470326155163E-002,0.999891901207,0.E+000));
#1247 = ORIENTED_EDGE('',*,*,#1248,.F.);
#1248 = EDGE_CURVE('',#1249,#1241,#1251,.T.);
#1249 = VERTEX_POINT('',#1250);
#1250 = CARTESIAN_POINT('',(40.285999298096,127.31700134277,-0.2010029)
  );
#1251 = LINE('',#1252,#1253);
#1252 = CARTESIAN_POINT('',(40.285999298096,127.31700134277,-0.2010029)
  );
#1253 = VECTOR('',#1254,1.);
#1254 = DIRECTION('',(0.E+000,0.E+000,1.));
#1255 = ORIENTED_EDGE('',*,*,#1256,.F.);
#1256 = EDGE_CURVE('',#1218,#1249,#1257,.T.);
#1257 = LINE('',#1258,#1259);
#1258 = CARTESIAN_POINT('',(40.293998718262,126.77300262451,-0.2010029)
  );
#1259 = VECTOR('',#1260,1.);
#1260 = DIRECTION('',(-1.470326155163E-002,0.999891901207,0.E+000));
#1261 = PLANE('',#1262);
#1262 = AXIS2_PLACEMENT_3D('',#1263,#1264,#1265);
#1263 = CARTESIAN_POINT('',(40.293998718262,126.77300262451,-0.2010029)
  );
#1264 = DIRECTION('',(-0.999891901207,-1.470326155163E-002,0.E+000));
#1265 = DIRECTION('',(-1.470326155163E-002,0.999891901207,0.E+000));
#1266 = ADVANCED_FACE('',(#1267),#1292,.F.);
#1267 = FACE_BOUND('',#1268,.F.);
#1268 = EDGE_LOOP('',(#1269,#1270,#1278,#1286));
#1269 = ORIENTED_EDGE('',*,*,#1248,.T.);
#1270 = ORIENTED_EDGE('',*,*,#1271,.T.);
#1271 = EDGE_CURVE('',#1241,#1272,#1274,.T.);
#1272 = VERTEX_POINT('',#1273);
#1273 = CARTESIAN_POINT('',(39.588001251221,127.31700134277,0.E+000));
#1274 = LINE('',#1275,#1276);
#1275 = CARTESIAN_POINT('',(40.285999298096,127.31700134277,0.E+000));
#1276 = VECTOR('',#1277,1.);
#1277 = DIRECTION('',(-1.,0.E+000,0.E+000));
#1278 = ORIENTED_EDGE('',*,*,#1279,.F.);
#1279 = EDGE_CURVE('',#1280,#1272,#1282,.T.);
#1280 = VERTEX_POINT('',#1281);
#1281 = CARTESIAN_POINT('',(39.588001251221,127.31700134277,-0.2010029)
  );
#1282 = LINE('',#1283,#1284);
#1283 = CARTESIAN_POINT('',(39.588001251221,127.31700134277,-0.2010029)
  );
#1284 = VECTOR('',#1285,1.);
#1285 = DIRECTION('',(0.E+000,0.E+000,1.));
#1286 = ORIENTED_EDGE('',*,*,#1287,.F.);
#1287 = EDGE_CURVE('',#1249,#1280,#1288,.T.);
#1288 = LINE('',#1289,#1290);
#1289 = CARTESIAN_POINT('',(40.285999298096,127.31700134277,-0.2010029)
  );
#1290 = VECTOR('',#1291,1.);
#1291 = DIRECTION('',(-1.,0.E+000,0.E+000));
#1292 = PLANE('',#1293);
#1293 = AXIS2_PLACEMENT_3D('',#1294,#1295,#1296);
#1294 = CARTESIAN_POINT('',(40.285999298096,127.31700134277,-0.2010029)
  );
#1295 = DIRECTION('',(0.E+000,-1.,0.E+000));
#1296 = DIRECTION('',(-1.,0.E+000,0.E+000));
#1297 = ADVANCED_FACE('',(#1298),#1323,.F.);
#1298 = FACE_BOUND('',#1299,.F.);
#1299 = EDGE_LOOP('',(#1300,#1301,#1309,#1317));
#1300 = ORIENTED_EDGE('',*,*,#1279,.T.);
#1301 = ORIENTED_EDGE('',*,*,#1302,.T.);
#1302 = EDGE_CURVE('',#1272,#1303,#1305,.T.);
#1303 = VERTEX_POINT('',#1304);
#1304 = CARTESIAN_POINT('',(39.187000274658,126.76599884033,0.E+000));
#1305 = LINE('',#1306,#1307);
#1306 = CARTESIAN_POINT('',(39.588001251221,127.31700134277,0.E+000));
#1307 = VECTOR('',#1308,1.);
#1308 = DIRECTION('',(-0.588432611711,-0.808546264276,0.E+000));
#1309 = ORIENTED_EDGE('',*,*,#1310,.F.);
#1310 = EDGE_CURVE('',#1311,#1303,#1313,.T.);
#1311 = VERTEX_POINT('',#1312);
#1312 = CARTESIAN_POINT('',(39.187000274658,126.76599884033,-0.2010029)
  );
#1313 = LINE('',#1314,#1315);
#1314 = CARTESIAN_POINT('',(39.187000274658,126.76599884033,-0.2010029)
  );
#1315 = VECTOR('',#1316,1.);
#1316 = DIRECTION('',(0.E+000,0.E+000,1.));
#1317 = ORIENTED_EDGE('',*,*,#1318,.F.);
#1318 = EDGE_CURVE('',#1280,#1311,#1319,.T.);
#1319 = LINE('',#1320,#1321);
#1320 = CARTESIAN_POINT('',(39.588001251221,127.31700134277,-0.2010029)
  );
#1321 = VECTOR('',#1322,1.);
#1322 = DIRECTION('',(-0.588432611711,-0.808546264276,0.E+000));
#1323 = PLANE('',#1324);
#1324 = AXIS2_PLACEMENT_3D('',#1325,#1326,#1327);
#1325 = CARTESIAN_POINT('',(39.588001251221,127.31700134277,-0.2010029)
  );
#1326 = DIRECTION('',(0.808546264276,-0.588432611711,0.E+000));
#1327 = DIRECTION('',(-0.588432611711,-0.808546264276,0.E+000));
#1328 = ADVANCED_FACE('',(#1329),#1354,.F.);
#1329 = FACE_BOUND('',#1330,.F.);
#1330 = EDGE_LOOP('',(#1331,#1332,#1340,#1348));
#1331 = ORIENTED_EDGE('',*,*,#1310,.T.);
#1332 = ORIENTED_EDGE('',*,*,#1333,.T.);
#1333 = EDGE_CURVE('',#1303,#1334,#1336,.T.);
#1334 = VERTEX_POINT('',#1335);
#1335 = CARTESIAN_POINT('',(38.087001800537,126.76599884033,0.E+000));
#1336 = LINE('',#1337,#1338);
#1337 = CARTESIAN_POINT('',(39.187000274658,126.76599884033,0.E+000));
#1338 = VECTOR('',#1339,1.);
#1339 = DIRECTION('',(-1.,0.E+000,0.E+000));
#1340 = ORIENTED_EDGE('',*,*,#1341,.F.);
#1341 = EDGE_CURVE('',#1342,#1334,#1344,.T.);
#1342 = VERTEX_POINT('',#1343);
#1343 = CARTESIAN_POINT('',(38.087001800537,126.76599884033,-0.2010029)
  );
#1344 = LINE('',#1345,#1346);
#1345 = CARTESIAN_POINT('',(38.087001800537,126.76599884033,-0.2010029)
  );
#1346 = VECTOR('',#1347,1.);
#1347 = DIRECTION('',(0.E+000,0.E+000,1.));
#1348 = ORIENTED_EDGE('',*,*,#1349,.F.);
#1349 = EDGE_CURVE('',#1311,#1342,#1350,.T.);
#1350 = LINE('',#1351,#1352);
#1351 = CARTESIAN_POINT('',(39.187000274658,126.76599884033,-0.2010029)
  );
#1352 = VECTOR('',#1353,1.);
#1353 = DIRECTION('',(-1.,0.E+000,0.E+000));
#1354 = PLANE('',#1355);
#1355 = AXIS2_PLACEMENT_3D('',#1356,#1357,#1358);
#1356 = CARTESIAN_POINT('',(39.187000274658,126.76599884033,-0.2010029)
  );
#1357 = DIRECTION('',(0.E+000,-1.,0.E+000));
#1358 = DIRECTION('',(-1.,0.E+000,0.E+000));
#1359 = ADVANCED_FACE('',(#1360),#1376,.F.);
#1360 = FACE_BOUND('',#1361,.F.);
#1361 = EDGE_LOOP('',(#1362,#1363,#1369,#1370));
#1362 = ORIENTED_EDGE('',*,*,#1341,.T.);
#1363 = ORIENTED_EDGE('',*,*,#1364,.T.);
#1364 = EDGE_CURVE('',#1334,#24,#1365,.T.);
#1365 = LINE('',#1366,#1367);
#1366 = CARTESIAN_POINT('',(38.087001800537,126.76599884033,0.E+000));
#1367 = VECTOR('',#1368,1.);
#1368 = DIRECTION('',(3.276887485433E-005,-0.999999999463,0.E+000));
#1369 = ORIENTED_EDGE('',*,*,#21,.F.);
#1370 = ORIENTED_EDGE('',*,*,#1371,.F.);
#1371 = EDGE_CURVE('',#1342,#22,#1372,.T.);
#1372 = LINE('',#1373,#1374);
#1373 = CARTESIAN_POINT('',(38.087001800537,126.76599884033,-0.2010029)
  );
#1374 = VECTOR('',#1375,1.);
#1375 = DIRECTION('',(3.276887485433E-005,-0.999999999463,0.E+000));
#1376 = PLANE('',#1377);
#1377 = AXIS2_PLACEMENT_3D('',#1378,#1379,#1380);
#1378 = CARTESIAN_POINT('',(38.087001800537,126.76599884033,-0.2010029)
  );
#1379 = DIRECTION('',(0.999999999463,3.276887485433E-005,-0.E+000));
#1380 = DIRECTION('',(3.276887485433E-005,-0.999999999463,0.E+000));
#1381 = ADVANCED_FACE('',(#1382),#1428,.F.);
#1382 = FACE_BOUND('',#1383,.F.);
#1383 = EDGE_LOOP('',(#1384,#1385,#1386,#1387,#1388,#1389,#1390,#1391,
    #1392,#1393,#1394,#1395,#1396,#1397,#1398,#1399,#1400,#1401,#1402,
    #1403,#1404,#1405,#1406,#1407,#1408,#1409,#1410,#1411,#1412,#1413,
    #1414,#1415,#1416,#1417,#1418,#1419,#1420,#1421,#1422,#1423,#1424,
    #1425,#1426,#1427));
#1384 = ORIENTED_EDGE('',*,*,#47,.T.);
#1385 = ORIENTED_EDGE('',*,*,#78,.T.);
#1386 = ORIENTED_EDGE('',*,*,#109,.T.);
#1387 = ORIENTED_EDGE('',*,*,#140,.T.);
#1388 = ORIENTED_EDGE('',*,*,#171,.T.);
#1389 = ORIENTED_EDGE('',*,*,#202,.T.);
#1390 = ORIENTED_EDGE('',*,*,#233,.T.);
#1391 = ORIENTED_EDGE('',*,*,#264,.T.);
#1392 = ORIENTED_EDGE('',*,*,#295,.T.);
#1393 = ORIENTED_EDGE('',*,*,#326,.T.);
#1394 = ORIENTED_EDGE('',*,*,#357,.T.);
#1395 = ORIENTED_EDGE('',*,*,#388,.T.);
#1396 = ORIENTED_EDGE('',*,*,#419,.T.);
#1397 = ORIENTED_EDGE('',*,*,#450,.T.);
#1398 = ORIENTED_EDGE('',*,*,#481,.T.);
#1399 = ORIENTED_EDGE('',*,*,#512,.T.);
#1400 = ORIENTED_EDGE('',*,*,#543,.T.);
#1401 = ORIENTED_EDGE('',*,*,#574,.T.);
#1402 = ORIENTED_EDGE('',*,*,#605,.T.);
#1403 = ORIENTED_EDGE('',*,*,#636,.T.);
#1404 = ORIENTED_EDGE('',*,*,#667,.T.);
#1405 = ORIENTED_EDGE('',*,*,#698,.T.);
#1406 = ORIENTED_EDGE('',*,*,#729,.T.);
#1407 = ORIENTED_EDGE('',*,*,#760,.T.);
#1408 = ORIENTED_EDGE('',*,*,#791,.T.);
#1409 = ORIENTED_EDGE('',*,*,#822,.T.);
#1410 = ORIENTED_EDGE('',*,*,#853,.T.);
#1411 = ORIENTED_EDGE('',*,*,#884,.T.);
#1412 = ORIENTED_EDGE('',*,*,#915,.T.);
#1413 = ORIENTED_EDGE('',*,*,#946,.T.);
#1414 = ORIENTED_EDGE('',*,*,#977,.T.);
#1415 = ORIENTED_EDGE('',*,*,#1008,.T.);
#1416 = ORIENTED_EDGE('',*,*,#1039,.T.);
#1417 = ORIENTED_EDGE('',*,*,#1070,.T.);
#1418 = ORIENTED_EDGE('',*,*,#1101,.T.);
#1419 = ORIENTED_EDGE('',*,*,#1132,.T.);
#1420 = ORIENTED_EDGE('',*,*,#1163,.T.);
#1421 = ORIENTED_EDGE('',*,*,#1194,.T.);
#1422 = ORIENTED_EDGE('',*,*,#1225,.T.);
#1423 = ORIENTED_EDGE('',*,*,#1256,.T.);
#1424 = ORIENTED_EDGE('',*,*,#1287,.T.);
#1425 = ORIENTED_EDGE('',*,*,#1318,.T.);
#1426 = ORIENTED_EDGE('',*,*,#1349,.T.);
#1427 = ORIENTED_EDGE('',*,*,#1371,.T.);
#1428 = PLANE('',#1429);
#1429 = AXIS2_PLACEMENT_3D('',#1430,#1431,#1432);
#1430 = CARTESIAN_POINT('',(38.088001251221,96.265998840332,-0.2010029)
  );
#1431 = DIRECTION('',(-0.E+000,0.E+000,1.));
#1432 = DIRECTION('',(1.,0.E+000,0.E+000));
#1433 = ADVANCED_FACE('',(#1434),#1480,.T.);
#1434 = FACE_BOUND('',#1435,.T.);
#1435 = EDGE_LOOP('',(#1436,#1437,#1438,#1439,#1440,#1441,#1442,#1443,
    #1444,#1445,#1446,#1447,#1448,#1449,#1450,#1451,#1452,#1453,#1454,
    #1455,#1456,#1457,#1458,#1459,#1460,#1461,#1462,#1463,#1464,#1465,
    #1466,#1467,#1468,#1469,#1470,#1471,#1472,#1473,#1474,#1475,#1476,
    #1477,#1478,#1479));
#1436 = ORIENTED_EDGE('',*,*,#31,.T.);
#1437 = ORIENTED_EDGE('',*,*,#62,.T.);
#1438 = ORIENTED_EDGE('',*,*,#93,.T.);
#1439 = ORIENTED_EDGE('',*,*,#124,.T.);
#1440 = ORIENTED_EDGE('',*,*,#155,.T.);
#1441 = ORIENTED_EDGE('',*,*,#186,.T.);
#1442 = ORIENTED_EDGE('',*,*,#217,.T.);
#1443 = ORIENTED_EDGE('',*,*,#248,.T.);
#1444 = ORIENTED_EDGE('',*,*,#279,.T.);
#1445 = ORIENTED_EDGE('',*,*,#310,.T.);
#1446 = ORIENTED_EDGE('',*,*,#341,.T.);
#1447 = ORIENTED_EDGE('',*,*,#372,.T.);
#1448 = ORIENTED_EDGE('',*,*,#403,.T.);
#1449 = ORIENTED_EDGE('',*,*,#434,.T.);
#1450 = ORIENTED_EDGE('',*,*,#465,.T.);
#1451 = ORIENTED_EDGE('',*,*,#496,.T.);
#1452 = ORIENTED_EDGE('',*,*,#527,.T.);
#1453 = ORIENTED_EDGE('',*,*,#558,.T.);
#1454 = ORIENTED_EDGE('',*,*,#589,.T.);
#1455 = ORIENTED_EDGE('',*,*,#620,.T.);
#1456 = ORIENTED_EDGE('',*,*,#651,.T.);
#1457 = ORIENTED_EDGE('',*,*,#682,.T.);
#1458 = ORIENTED_EDGE('',*,*,#713,.T.);
#1459 = ORIENTED_EDGE('',*,*,#744,.T.);
#1460 = ORIENTED_EDGE('',*,*,#775,.T.);
#1461 = ORIENTED_EDGE('',*,*,#806,.T.);
#1462 = ORIENTED_EDGE('',*,*,#837,.T.);
#1463 = ORIENTED_EDGE('',*,*,#868,.T.);
#1464 = ORIENTED_EDGE('',*,*,#899,.T.);
#1465 = ORIENTED_EDGE('',*,*,#930,.T.);
#1466 = ORIENTED_EDGE('',*,*,#961,.T.);
#1467 = ORIENTED_EDGE('',*,*,#992,.T.);
#1468 = ORIENTED_EDGE('',*,*,#1023,.T.);
#1469 = ORIENTED_EDGE('',*,*,#1054,.T.);
#1470 = ORIENTED_EDGE('',*,*,#1085,.T.);
#1471 = ORIENTED_EDGE('',*,*,#1116,.T.);
#1472 = ORIENTED_EDGE('',*,*,#1147,.T.);
#1473 = ORIENTED_EDGE('',*,*,#1178,.T.);
#1474 = ORIENTED_EDGE('',*,*,#1209,.T.);
#1475 = ORIENTED_EDGE('',*,*,#1240,.T.);
#1476 = ORIENTED_EDGE('',*,*,#1271,.T.);
#1477 = ORIENTED_EDGE('',*,*,#1302,.T.);
#1478 = ORIENTED_EDGE('',*,*,#1333,.T.);
#1479 = ORIENTED_EDGE('',*,*,#1364,.T.);
#1480 = PLANE('',#1481);
#1481 = AXIS2_PLACEMENT_3D('',#1482,#1483,#1484);
#1482 = CARTESIAN_POINT('',(38.088001251221,96.265998840332,0.E+000));
#1483 = DIRECTION('',(-0.E+000,0.E+000,1.));
#1484 = DIRECTION('',(1.,0.E+000,0.E+000));
#1485 = ( GEOMETRIC_REPRESENTATION_CONTEXT(3) 
GLOBAL_UNCERTAINTY_ASSIGNED_CONTEXT((#1489)) 
GLOBAL_UNIT_ASSIGNED_CONTEXT((#1486,#1487,#1488)) REPRESENTATION_CONTEXT
('Context #1','3D Context with UNIT and UNCERTAINTY') );
#1486 = ( LENGTH_UNIT() NAMED_UNIT(*) SI_UNIT(.MILLI.,.METRE.) );
#1487 = ( NAMED_UNIT(*) PLANE_ANGLE_UNIT() SI_UNIT($,.RADIAN.) );
#1488 = ( NAMED_UNIT(*) SI_UNIT($,.STERADIAN.) SOLID_ANGLE_UNIT() );
#1489 = UNCERTAINTY_MEASURE_WITH_UNIT(LENGTH_MEASURE(1.E-007),#1486,
  'distance_accuracy_value','confusion accuracy');
#1490 = PRODUCT_RELATED_PRODUCT_CATEGORY('part',$,(#7));
#1491 = MECHANICAL_DESIGN_GEOMETRIC_PRESENTATION_REPRESENTATION('',(
    #1492),#1485);
#1492 = STYLED_ITEM('color',(#1493),#15);
#1493 = PRESENTATION_STYLE_ASSIGNMENT((#1494));
#1494 = SURFACE_STYLE_USAGE(.BOTH.,#1495);
#1495 = SURFACE_SIDE_STYLE('',(#1496));
#1496 = SURFACE_STYLE_FILL_AREA(#1497);
#1497 = FILL_AREA_STYLE('',(#1498));
#1498 = FILL_AREA_STYLE_COLOUR('',#1499);
#1499 = COLOUR_RGB('',0.E+000,0.501960813999,0.E+000);
ENDSEC;
END-ISO-10303-21;
